Source,Target,Type,Id,Label,timeset,Weight,year,country
27233,64957,Directed,4823,,,1,1894,Austria
27233,52212,Directed,4787,,,1,1893,Austria
27233,49940,Directed,4600,,,1,1888,Austria
27233,64946,Directed,4300,,,1,1881,Austria
27250,27233,Directed,4014,,,1,1870,CzechRepublic
32858,27233,Directed,4006,,,1,1869,Germany
7413,9700,Directed,4970,,,1,1897,Switzerland
7413,9699,Directed,4927,,,1,1896,Switzerland
18589,7413,Directed,4340,,,1,1881,Germany
43417,126038,Directed,5030,,,1,1898,Germany
76487,43417,Directed,4565,,,1,1887,Germany
49394,18349,Directed,4418,,,1,1883,Germany
18589,7415,Directed,4372,,,1,1882,Germany
65029,51112,Directed,4234,,,1,1878,Germany
7414,61731,Directed,4903,,,1,1895,Germany
18589,7414,Directed,4341,,,1,1881,Germany
76487,208536,Directed,4309,,,1,1881,Germany
18589,7418,Directed,4490,,,1,1885,Germany
49063,46928,Directed,3773,,,1,1857,Germany
49498,38061,Directed,5017,,,1,1898,UnitedStates
18589,7419,Directed,4492,,,1,1885,Germany
8138,7939,Directed,4957,,,1,1897,UnitedStates
35953,168020,Directed,3882,,,1,1863,Germany
35953,157277,Directed,3746,,,1,1854,Germany
35953,168009,Directed,3637,,,1,1842,Germany
7431,8146,Directed,5009,,,1,1898,UnitedStates
7431,8145,Directed,4952,,,1,1897,UnitedStates
7431,8144,Directed,4951,,,1,1897,UnitedStates
7431,7666,Directed,4880,,,1,1895,UnitedStates
55642,169775,Directed,5053,,,1,1898,Germany
55642,222386,Directed,4995,,,1,1897,Germany
55642,61701,Directed,4993,,,1,1897,Germany
55642,172555,Directed,4670,,,1,1889,Germany
55642,62118,Directed,4589,,,1,1887,Germany
136535,66530,Directed,4900,,,1,1895,Germany
18589,7426,Directed,4583,,,1,1887,Germany
32858,7422,Directed,4538,,,1,1886,Germany
60555,60573,Directed,4711,,,1,1891,Poland
60555,60572,Directed,4505,,,1,1886,Poland
155993,60555,Directed,4210,,,1,1877,Germany
7451,7456,Directed,5062,,,1,1899,UnitedStates
7451,7455,Directed,5007,,,1,1898,UnitedStates
7451,7453,Directed,4918,,,1,1896,UnitedStates
7451,7466,Directed,4876,,,1,1895,UnitedStates
7451,7459,Directed,4875,,,1,1895,UnitedStates
7451,7458,Directed,4874,,,1,1895,UnitedStates
7451,7454,Directed,4873,,,1,1895,UnitedStates
7451,7463,Directed,4798,,,1,1893,UnitedStates
7451,7470,Directed,4760,,,1,1892,UnitedStates
7451,7452,Directed,4609,,,1,1888,UnitedStates
18589,7451,Directed,4161,,,1,1875,Germany
32858,7451,Directed,4160,,,1,1875,Germany
127308,127315,Directed,3976,,,1,1868,Switzerland
128929,127308,Directed,3713,,,1,1851,Germany
167161,167162,Directed,3846,,,1,1861,Germany
18589,7412,Directed,4337,,,1,1881,Germany
45103,45102,Directed,3569,,,1,1831,Germany
18589,7424,Directed,4542,,,1,1886,Germany
8138,7940,Directed,5071,,,1,1899,UnitedStates
49498,38078,Directed,5019,,,1,1898,UnitedStates
34187,167160,Directed,4106,,,1,1873,Germany
34187,67327,Directed,4102,,,1,1873,Germany
34187,51785,Directed,3984,,,1,1868,Germany
34187,57978,Directed,3969,,,1,1867,Germany
34187,46069,Directed,3966,,,1,1867,Germany
34187,177350,Directed,3937,,,1,1866,Germany
34187,177343,Directed,3935,,,1,1866,Germany
34187,177349,Directed,3921,,,1,1865,Germany
34187,177348,Directed,3919,,,1,1865,Germany
34187,168020,Directed,3883,,,1,1863,Germany
34187,167162,Directed,3847,,,1,1861,Germany
34187,34188,Directed,3845,,,1,1861,Germany
34187,168021,Directed,3825,,,1,1860,Germany
34187,168011,Directed,3779,,,1,1857,Germany
34187,177351,Directed,3763,,,1,1856,Germany
34187,157277,Directed,3745,,,1,1854,Germany
34187,136714,Directed,3734,,,1,1853,Germany
34187,168026,Directed,3683,,,1,1846,Germany
34187,168025,Directed,3681,,,1,1846,Germany
34187,168023,Directed,3679,,,1,1846,Germany
34187,168022,Directed,3640,,,1,1842,Germany
34187,168009,Directed,3638,,,1,1842,Germany
34187,168016,Directed,3629,,,1,1841,Germany
34187,168019,Directed,3622,,,1,1839,Germany
170019,34187,Directed,3525,,,1,1824,Germany
140135,34187,Directed,3524,,,1,1824,Germany
32858,7416,Directed,4403,,,1,1883,Germany
155982,67327,Directed,4103,,,1,1873,Germany
215353,134020,Directed,3457,,,1,1809,Germany
32858,150803,Directed,5048,,,1,1898,Germany
32858,53253,Directed,4704,,,1,1890,Germany
32858,172554,Directed,4594,,,1,1887,Germany
32858,57839,Directed,4588,,,1,1887,Germany
32858,42101,Directed,4586,,,1,1887,Germany
32858,74381,Directed,4550,,,1,1886,Germany
32858,217697,Directed,4500,,,1,1885,Germany
32858,168941,Directed,4374,,,1,1882,Germany
32858,183446,Directed,4348,,,1,1881,Germany
32858,167155,Directed,4346,,,1,1881,Germany
32858,157280,Directed,4266,,,1,1879,Germany
32858,174250,Directed,4164,,,1,1875,Germany
32858,173682,Directed,4162,,,1,1875,Germany
32858,213244,Directed,4108,,,1,1873,Germany
46967,32858,Directed,3762,,,1,1856,Germany
57706,32858,Directed,3761,,,1,1856,Germany
18589,745,Directed,4581,,,1,1887,Germany
7401,745,Directed,4580,,,1,1887,Germany
18589,7420,Directed,4494,,,1,1885,Germany
168015,168016,Directed,3628,,,1,1841,Germany
18589,53413,Directed,4856,,,1,1894,Germany
18589,172893,Directed,4751,,,1,1891,Germany
18589,51895,Directed,4745,,,1,1891,Germany
18589,59103,Directed,4666,,,1,1889,Germany
18589,46066,Directed,4664,,,1,1889,Germany
18589,169371,Directed,4634,,,1,1888,Germany
18589,61705,Directed,4631,,,1,1888,Germany
18589,59836,Directed,4628,,,1,1888,Germany
18589,172554,Directed,4593,,,1,1887,Germany
18589,42101,Directed,4587,,,1,1887,Germany
18589,68463,Directed,4547,,,1,1886,Germany
18589,65946,Directed,4545,,,1,1886,Germany
18589,73650,Directed,4496,,,1,1885,Germany
18589,46064,Directed,4454,,,1,1884,Germany
18589,190817,Directed,4414,,,1,1883,Germany
18589,61745,Directed,4409,,,1,1883,Germany
18589,53041,Directed,4407,,,1,1883,Germany
18589,46060,Directed,4405,,,1,1883,Germany
18589,168941,Directed,4373,,,1,1882,Germany
18589,51112,Directed,4235,,,1,1878,Germany
18589,60555,Directed,4209,,,1,1877,Germany
18589,174250,Directed,4165,,,1,1875,Germany
18589,173682,Directed,4163,,,1,1875,Germany
18589,213244,Directed,4107,,,1,1873,Germany
18589,27233,Directed,4007,,,1,1869,Germany
18589,167159,Directed,4005,,,1,1869,Germany
18589,160899,Directed,3988,,,1,1868,Germany
18589,62585,Directed,3986,,,1,1868,Germany
18589,51785,Directed,3985,,,1,1868,Germany
18589,34186,Directed,3855,,,1,1862,Germany
56263,34186,Directed,3854,,,1,1862,Germany
34187,34186,Directed,3853,,,1,1862,Germany
18589,7885,Directed,4030,,,1,1870,Germany
65029,7885,Directed,4029,,,1,1870,Germany
136536,184228,Directed,4289,,,1,1880,Germany
136715,136536,Directed,3887,,,1,1864,Switzerland
136714,136536,Directed,3886,,,1,1864,Switzerland
56263,46069,Directed,3967,,,1,1867,Germany
65022,65048,Directed,4865,,,1,1895,Austria
32858,7421,Directed,4536,,,1,1886,Germany
7401,37342,Directed,5063,,,1,1899,UnitedStates
7401,7444,Directed,4976,,,1,1897,Germany
7401,7443,Directed,4928,,,1,1896,Germany
7401,18555,Directed,4893,,,1,1895,Germany
7401,7442,Directed,4892,,,1,1895,Germany
7401,7441,Directed,4891,,,1,1895,Germany
7401,7439,Directed,4890,,,1,1895,Germany
7401,7438,Directed,4841,,,1,1894,Germany
7401,7437,Directed,4840,,,1,1894,Germany
7401,7436,Directed,4807,,,1,1893,Germany
7401,7434,Directed,4772,,,1,1892,Germany
7401,7433,Directed,4771,,,1,1892,Germany
7401,7435,Directed,4731,,,1,1891,Germany
7401,7432,Directed,4730,,,1,1891,Germany
7401,7431,Directed,4729,,,1,1891,Germany
7401,7430,Directed,4690,,,1,1890,Germany
7401,7429,Directed,4689,,,1,1890,Germany
7401,7427,Directed,4585,,,1,1887,Germany
7401,7426,Directed,4582,,,1,1887,Germany
7401,74381,Directed,4549,,,1,1886,Germany
7401,65946,Directed,4544,,,1,1886,Germany
7401,7424,Directed,4541,,,1,1886,Germany
7401,7423,Directed,4539,,,1,1886,Germany
7401,7422,Directed,4537,,,1,1886,Germany
7401,7421,Directed,4535,,,1,1886,Germany
7401,7428,Directed,4522,,,1,1886,Germany
7401,7611,Directed,4509,,,1,1886,UnitedStates
7401,217697,Directed,4501,,,1,1885,Germany
7401,217696,Directed,4499,,,1,1885,Germany
7401,7420,Directed,4493,,,1,1885,Germany
7401,7419,Directed,4491,,,1,1885,Germany
7401,7418,Directed,4489,,,1,1885,Germany
7401,7417,Directed,4487,,,1,1885,Germany
7401,46064,Directed,4453,,,1,1884,Germany
7401,217634,Directed,4416,,,1,1883,Germany
7401,61745,Directed,4408,,,1,1883,Germany
7401,53041,Directed,4406,,,1,1883,Germany
7401,46060,Directed,4404,,,1,1883,Germany
7401,7416,Directed,4402,,,1,1883,Germany
7401,7415,Directed,4371,,,1,1882,Germany
7401,183446,Directed,4347,,,1,1881,Germany
7401,167155,Directed,4345,,,1,1881,Germany
7401,7414,Directed,4342,,,1,1881,Germany
7401,7413,Directed,4339,,,1,1881,Germany
7401,7412,Directed,4338,,,1,1881,Germany
7401,85765,Directed,4258,,,1,1879,Germany
7401,7410,Directed,4227,,,1,1878,Germany
7401,100246,Directed,4149,,,1,1875,Germany
7401,7409,Directed,4148,,,1,1875,Germany
7401,7408,Directed,4147,,,1,1875,Germany
7401,7407,Directed,4146,,,1,1875,Germany
7401,7405,Directed,4089,,,1,1873,Germany
7401,7404,Directed,4088,,,1,1873,Germany
7401,7403,Directed,4045,,,1,1871,Germany
19964,7401,Directed,3978,,,1,1868,Germany
7402,7401,Directed,3977,,,1,1868,Germany
41423,40982,Directed,3620,,,1,1839,Germany
56263,157280,Directed,4265,,,1,1879,Germany
56263,59657,Directed,4208,,,1,1877,Germany
56263,167160,Directed,4105,,,1,1873,Germany
56263,141932,Directed,4032,,,1,1870,Germany
56263,62585,Directed,3987,,,1,1868,Germany
56263,57978,Directed,3968,,,1,1867,Germany
56263,168021,Directed,3824,,,1,1860,Germany
56263,168011,Directed,3778,,,1,1857,Germany
56263,177351,Directed,3764,,,1,1856,Germany
56263,136714,Directed,3735,,,1,1853,Germany
101893,56263,Directed,3619,,,1,1839,Germany
56263,27250,Directed,3795,,,1,1858,Germany
35953,27250,Directed,3794,,,1,1858,Germany
34188,160899,Directed,3989,,,1,1868,Germany
34188,177350,Directed,3938,,,1,1866,Germany
34188,177343,Directed,3936,,,1,1866,Germany
34188,177349,Directed,3922,,,1,1865,Germany
34188,177348,Directed,3920,,,1,1865,Germany
35953,34188,Directed,3844,,,1,1861,Germany
201545,199522,Directed,3415,,,1,1797,Germany
53479,169775,Directed,5052,,,1,1898,Germany
53479,222386,Directed,4996,,,1,1897,Germany
64465,141837,Directed,4092,,,1,1873,Germany
168015,64465,Directed,3611,,,1,1838,Germany
167161,64465,Directed,3610,,,1,1838,Germany
217031,64465,Directed,3609,,,1,1838,Germany
106605,64465,Directed,3608,,,1,1838,Germany
134020,128929,Directed,3593,,,1,1835,Germany
45103,62586,Directed,3533,,,1,1825,Germany
155982,51877,Directed,4179,,,1,1876,Germany
155981,51877,Directed,4178,,,1,1876,Germany
22998,121521,Directed,5023,,,1,1898,Switzerland
127315,22998,Directed,4116,,,1,1874,Switzerland
106605,168026,Directed,3682,,,1,1846,Germany
106605,168025,Directed,3680,,,1,1846,Germany
199522,106605,Directed,3479,,,1,1815,Germany
52329,52435,Directed,4279,,,1,1880,Germany
52329,127770,Directed,3904,,,1,1865,Germany
57721,52329,Directed,3834,,,1,1861,Germany
18589,7423,Directed,4540,,,1,1886,Germany
54762,82584,Directed,4575,,,1,1887,Germany
64465,54762,Directed,3998,,,1,1869,Germany
65029,60783,Directed,4212,,,1,1877,Germany
155990,60783,Directed,4211,,,1,1877,Germany
41423,45117,Directed,3634,,,1,1842,Germany
41423,45111,Directed,3607,,,1,1837,Germany
41423,45106,Directed,3601,,,1,1836,Germany
41423,156722,Directed,3599,,,1,1836,Germany
41423,45112,Directed,3594,,,1,1835,Germany
41423,45102,Directed,3570,,,1,1831,Germany
41423,62586,Directed,3532,,,1,1825,Germany
57667,41423,Directed,3495,,,1,1820,Germany
57659,41423,Directed,3494,,,1,1820,Germany
32858,7417,Directed,4488,,,1,1885,Germany
51429,72179,Directed,5025,,,1,1898,Germany
51429,133027,Directed,4785,,,1,1892,Germany
51429,169375,Directed,4707,,,1,1890,Germany
51429,53253,Directed,4703,,,1,1890,Germany
51429,59657,Directed,4207,,,1,1877,Germany
65029,51429,Directed,4077,,,1,1872,Germany
56263,51429,Directed,4076,,,1,1872,Germany
49522,49499,Directed,5055,,,1,1899,Austria
49524,49499,Directed,5054,,,1,1899,Austria
27259,64957,Directed,4824,,,1,1894,Austria
27259,49498,Directed,4822,,,1,1894,Austria
27259,52212,Directed,4786,,,1,1893,Austria
27259,49940,Directed,4599,,,1,1888,Austria
49523,27259,Directed,4080,,,1,1873,Austria
5885,5696,Directed,4920,,,1,1896,UnitedStates
57721,59342,Directed,4046,,,1,1871,Germany
57721,76487,Directed,3872,,,1,1863,Germany
101893,57721,Directed,3544,,,1,1827,Germany
49498,38055,Directed,4923,,,1,1896,UnitedStates
49522,49498,Directed,4821,,,1,1894,Austria
15635,15654,Directed,3864,,,1,1862,Germany
15635,76359,Directed,3705,,,1,1849,Germany
15635,18589,Directed,3698,,,1,1848,Germany
15635,207338,Directed,3655,,,1,1844,Germany
15635,174251,Directed,3649,,,1,1843,Germany
15635,46967,Directed,3624,,,1,1840,Germany
15635,57706,Directed,3571,,,1,1831,Germany
41423,15635,Directed,3531,,,1,1825,Germany
49394,60295,Directed,4860,,,1,1894,Germany
57721,49394,Directed,3835,,,1,1861,Germany
49498,38068,Directed,5018,,,1,1898,UnitedStates
208536,216271,Directed,4444,,,1,1884,Germany
211127,208536,Directed,4310,,,1,1881,Germany
49522,65048,Directed,4864,,,1,1895,Austria
27259,18602,Directed,4556,,,1,1887,Austria
27233,18602,Directed,4555,,,1,1887,Austria
7452,7473,Directed,5008,,,1,1898,UnitedStates
7452,7463,Directed,4799,,,1,1893,UnitedStates
7454,7940,Directed,5072,,,1,1899,UnitedStates
59657,38198,Directed,4086,,,1,1873,UnitedStates
18231,18233,Directed,3717,,,1,1852,Germany
18231,18232,Directed,3712,,,1,1851,Germany
18231,166471,Directed,3644,,,1,1843,Germany
18231,19953,Directed,3586,,,1,1834,Germany
18231,55175,Directed,3562,,,1,1830,Germany
18231,165758,Directed,3555,,,1,1829,Germany
18231,62547,Directed,3535,,,1,1825,Germany
18231,217618,Directed,3522,,,1,1824,Germany
18231,151876,Directed,3503,,,1,1822,Germany
18231,29642,Directed,3468,,,1,1812,Germany
18231,18603,Directed,3459,,,1,1810,Germany
9712,170054,Directed,5107,,,1,1899,Germany
9712,170053,Directed,5105,,,1,1899,Germany
9712,172893,Directed,4750,,,1,1891,Germany
9712,51895,Directed,4744,,,1,1891,Germany
9712,46991,Directed,4742,,,1,1891,Germany
9712,169375,Directed,4708,,,1,1890,Germany
9712,169477,Directed,4668,,,1,1889,Germany
9712,169371,Directed,4635,,,1,1888,Germany
9712,61705,Directed,4630,,,1,1888,Germany
9712,59836,Directed,4629,,,1,1888,Germany
9712,68463,Directed,4546,,,1,1886,Germany
9712,190817,Directed,4415,,,1,1883,Germany
18331,9712,Directed,4052,,,1,1871,Germany
65029,167159,Directed,4004,,,1,1869,Germany
7401,5885,Directed,4521,,,1,1886,Germany
136714,136535,Directed,4042,,,1,1871,Switzerland
27259,20359,Directed,4998,,,1,1898,Austria
127770,121521,Directed,5024,,,1,1898,Switzerland
136536,47633,Directed,4897,,,1,1895,Germany
136535,47633,Directed,4896,,,1,1895,Germany
136714,47633,Directed,4658,,,1,1889,Germany
49498,38060,Directed,4962,,,1,1897,UnitedStates
222463,170019,Directed,3399,,,1,1794,Germany
57545,173723,Directed,4636,,,1,1888,Germany
64465,57545,Directed,4015,,,1,1870,Germany
49063,105707,Directed,4117,,,1,1874,Germany
49063,52329,Directed,3871,,,1,1863,Germany
49063,51623,Directed,3690,,,1,1847,Germany
45103,40976,Directed,3580,,,1,1833,Germany
41423,40976,Directed,3579,,,1,1833,Germany
158570,155990,Directed,3798,,,1,1859,Switzerland
46065,170054,Directed,5106,,,1,1899,Germany
46065,170053,Directed,5104,,,1,1899,Germany
46065,61701,Directed,4994,,,1,1897,Germany
46065,133027,Directed,4784,,,1,1892,Germany
46065,172555,Directed,4669,,,1,1889,Germany
46065,59103,Directed,4665,,,1,1889,Germany
46065,62115,Directed,4632,,,1,1888,Germany
46065,169080,Directed,4591,,,1,1887,Germany
46065,62118,Directed,4590,,,1,1887,Germany
46065,72614,Directed,4548,,,1,1886,Germany
46065,64046,Directed,4543,,,1,1886,Germany
46065,217696,Directed,4498,,,1,1885,Germany
46065,73650,Directed,4495,,,1,1885,Germany
49057,46065,Directed,3757,,,1,1856,Germany
145780,145781,Directed,4125,,,1,1874,Germany
145775,145776,Directed,3332,,,1,1774,Germany
146035,145775,Directed,3193,,,1,1739,Germany
188065,168063,Directed,3252,,,1,1757,Germany
145778,145780,Directed,3815,,,1,1860,Germany
145776,145777,Directed,3450,,,1,1806,Germany
145706,145778,Directed,3512,,,1,1823,Germany
145706,145777,Directed,3449,,,1,1806,Germany
145774,145706,Directed,3328,,,1,1774,Germany
188065,145706,Directed,3311,,,1,1771,Germany
127414,145771,Directed,3042,,,1,1702,Germany
127414,127602,Directed,3026,,,1,1696,Germany
138165,138166,Directed,4832,,,1,1894,UnitedStates
145777,145778,Directed,3513,,,1,1823,Germany
145770,146035,Directed,3053,,,1,1706,Germany
145770,145771,Directed,3052,,,1,1706,Germany
146034,145770,Directed,3020,,,1,1694,Germany
113568,113573,Directed,3519,,,1,1824,Netherlands
113861,113568,Directed,3396,,,1,1794,Netherlands
145771,145774,Directed,3148,,,1,1727,Germany
145771,145772,Directed,3092,,,1,1717,Germany
156005,198629,Directed,4214,,,1,1877,Germany
156005,206950,Directed,4167,,,1,1875,Germany
127390,145771,Directed,3043,,,1,1702,Germany
127390,127602,Directed,3027,,,1,1696,Germany
188065,65990,Directed,3346,,,1,1777,Germany
156004,145782,Directed,4413,,,1,1883,Germany
206959,206950,Directed,4166,,,1,1875,Germany
188065,221313,Directed,3359,,,1,1780,Germany
188065,221315,Directed,3354,,,1,1779,
188065,221316,Directed,3350,,,1,1778,Germany
188065,221317,Directed,3347,,,1,1777,Germany
188065,221318,Directed,3341,,,1,1775,Germany
188065,221325,Directed,3331,,,1,1774,Germany
188065,221324,Directed,3330,,,1,1774,Germany
188065,221323,Directed,3329,,,1,1774,Germany
188065,221327,Directed,3323,,,1,1773,Germany
188065,221326,Directed,3322,,,1,1773,Germany
188065,221330,Directed,3319,,,1,1772,Germany
188065,221329,Directed,3318,,,1,1772,Germany
188065,221331,Directed,3312,,,1,1771,Germany
188065,221333,Directed,3304,,,1,1770,Germany
188065,221332,Directed,3303,,,1,1770,Germany
188065,221274,Directed,3273,,,1,1764,Germany
113573,145183,Directed,3603,,,1,1837,Netherlands
145773,145774,Directed,3121,,,1,1723,Germany
145779,145781,Directed,4104,,,1,1873,Germany
138163,138164,Directed,3632,,,1,1842,UnitedStates
122535,144866,Directed,3657,,,1,1845,UnitedStates
122535,138162,Directed,3417,,,1,1799,UnitedStates
156004,198629,Directed,4213,,,1,1877,Germany
122397,122535,Directed,3406,,,1,1796,UnitedStates
145772,165424,Directed,3166,,,1,1731,Germany
145772,165423,Directed,3131,,,1,1725,Germany
145772,145774,Directed,3120,,,1,1723,Germany
145772,165425,Directed,3116,,,1,1722,Germany
145772,165422,Directed,3115,,,1,1722,Germany
156004,64937,Directed,4411,,,1,1883,Germany
156005,64937,Directed,4410,,,1,1883,Germany
101854,124486,Directed,3227,,,1,1750,Netherlands
101856,101854,Directed,3125,,,1,1725,Netherlands
138162,138163,Directed,3553,,,1,1829,UnitedStates
145781,145783,Directed,4497,,,1,1885,Germany
145781,145782,Directed,4412,,,1,1883,Germany
138164,138165,Directed,3672,,,1,1846,UnitedStates
127413,127414,Directed,2982,,,1,1682,Germany
122418,122535,Directed,3405,,,1,1796,UnitedStates
126736,126946,Directed,2678,,,1,1553,Germany
126736,126947,Directed,2666,,,1,1546,Germany
126736,126875,Directed,2662,,,1,1545,Germany
126736,126957,Directed,2660,,,1,1544,Germany
126736,127011,Directed,2657,,,1,1543,Germany
126736,127110,Directed,2656,,,1,1542,Germany
131905,132044,Directed,2634,,,1,1529,France
126730,126827,Directed,2643,,,1,1535,Germany
125658,125665,Directed,2627,,,1,1527,Belgium
125682,125658,Directed,2616,,,1,1515,Belgium
125681,125658,Directed,2615,,,1,1515,Belgium
131699,131700,Directed,2575,,,1,1471,Italy
126113,126177,Directed,2601,,,1,1499,Poland
126659,126667,Directed,2625,,,1,1524,Austria
126659,131399,Directed,2607,,,1,1506,Germany
47793,110897,Directed,3179,,,1,1735,Switzerland
47793,106922,Directed,3167,,,1,1732,Germany
47793,145118,Directed,3155,,,1,1728,Germany
60985,47793,Directed,3047,,,1,1703,Germany
113719,47793,Directed,3046,,,1,1703,Germany
127092,128348,Directed,2700,,,1,1566,Germany
119178,125303,Directed,2659,,,1,1544,Italy
152904,119178,Directed,2648,,,1,1537,Belgium
131517,131905,Directed,2631,,,1,1528,France
131517,131546,Directed,2623,,,1,1521,France
131541,131517,Directed,2591,,,1,1486,France
127459,127606,Directed,2751,,,1,1600,Germany
131399,182092,Directed,2636,,,1,1531,France
127848,128991,Directed,2829,,,1,1629,Germany
127848,128240,Directed,2820,,,1,1622,Germany
128105,127848,Directed,2748,,,1,1596,Germany
119159,126064,Directed,2651,,,1,1540,France
119159,119178,Directed,2649,,,1,1537,Belgium
119159,125665,Directed,2628,,,1,1527,Belgium
125422,119159,Directed,2639,,,1,1532,France
126571,119159,Directed,2626,,,1,1527,Belgium
128368,127727,Directed,3038,,,1,1699,Germany
127011,127050,Directed,2701,,,1,1567,Germany
127011,127092,Directed,2681,,,1,1555,Germany
114992,125023,Directed,2794,,,1,1619,Netherlands
114992,115008,Directed,2780,,,1,1614,Netherlands
114992,115368,Directed,2761,,,1,1605,Netherlands
126489,114992,Directed,2759,,,1,1603,Germany
128122,114992,Directed,2753,,,1,1601,UnitedKingdom
125888,125681,Directed,2605,,,1,1502,France
125422,125423,Directed,2652,,,1,1542,France
128987,125422,Directed,2635,,,1,1530,France
131398,131905,Directed,2630,,,1,1528,France
131444,131398,Directed,2585,,,1,1480,France
131443,131398,Directed,2584,,,1,1480,France
128348,128122,Directed,2719,,,1,1582,Germany
128305,128122,Directed,2718,,,1,1582,Germany
125373,125390,Directed,2729,,,1,1585,Netherlands
125047,125124,Directed,2699,,,1,1566,France
125047,125373,Directed,2679,,,1,1554,France
125047,125148,Directed,2676,,,1,1553,France
131546,125047,Directed,2646,,,1,1536,France
125665,125047,Directed,2645,,,1,1536,France
125173,126343,Directed,2837,,,1,1631,Netherlands
125233,125173,Directed,2750,,,1,1599,Netherlands
126667,126736,Directed,2642,,,1,1535,Germany
127646,132530,Directed,3140,,,1,1726,Germany
127646,127647,Directed,3083,,,1,1715,Germany
127962,127646,Directed,2997,,,1,1687,Germany
127264,126887,Directed,2559,,,1,1406,Austria
127181,126571,Directed,2613,,,1,1513,France
126177,126827,Directed,2644,,,1,1535,Germany
127107,127365,Directed,2619,,,1,1518,Germany
125109,125274,Directed,2754,,,1,1602,Italy
125109,127278,Directed,2733,,,1,1588,Germany
125109,127252,Directed,2712,,,1,1574,Italy
125109,125124,Directed,2704,,,1,1571,Italy
125142,125109,Directed,2684,,,1,1559,Italy
152669,143642,Directed,2736,,,1,1590,Germany
127461,127606,Directed,2752,,,1,1600,Germany
125124,125173,Directed,2749,,,1,1599,Netherlands
125124,125390,Directed,2728,,,1,1585,Netherlands
128105,128097,Directed,2765,,,1,1607,Germany
128104,128097,Directed,2764,,,1,1607,Germany
125938,126667,Directed,2622,,,1,1520,Germany
125938,131399,Directed,2617,,,1,1515,Germany
125760,126956,Directed,2614,,,1,1514,Germany
125760,182045,Directed,2610,,,1,1511,Germany
131444,125760,Directed,2582,,,1,1477,Switzerland
125755,125760,Directed,2586,,,1,1481,France
125665,132488,Directed,2715,,,1,1580,France
125665,127020,Directed,2680,,,1,1554,France
125665,127039,Directed,2670,,,1,1549,Germany
95530,24410,Directed,4220,,,1,1878,UnitedStates
115030,115463,Directed,2858,,,1,1641,Netherlands
115030,115139,Directed,2856,,,1,1641,Netherlands
125006,115030,Directed,2823,,,1,1623,Netherlands
125173,115030,Directed,2788,,,1,1617,Netherlands
131575,131561,Directed,2564,,,1,1436,Greece
143045,143082,Directed,2768,,,1,1610,Switzerland
182092,143045,Directed,2687,,,1,1559,Switzerland
128046,128986,Directed,2993,,,1,1686,Germany
107391,107498,Directed,3435,,,1,1801,Germany
107399,107391,Directed,3400,,,1,1795,Germany
74384,127923,Directed,2892,,,1,1651,Germany
131546,131606,Directed,2638,,,1,1532,France
102292,51878,Directed,4196,,,1,1877,Germany
152904,152906,Directed,2653,,,1,1542,Italy
129009,128991,Directed,2828,,,1,1629,Germany
126031,211459,Directed,3463,,,1,1811,Germany
60803,95530,Directed,3983,,,1,1868,Germany
60803,106920,Directed,3905,,,1,1865,Germany
60803,129648,Directed,3806,,,1,1859,Germany
126894,60803,Directed,3541,,,1,1826,Germany
127039,127049,Directed,2706,,,1,1571,Germany
127110,127039,Directed,2671,,,1,1549,Germany
131535,131447,Directed,2596,,,1,1493,Italy
126956,128104,Directed,2688,,,1,1560,Germany
126956,127011,Directed,2658,,,1,1543,Germany
126956,127110,Directed,2655,,,1,1542,Germany
126956,182045,Directed,2624,,,1,1523,Germany
127107,126956,Directed,2611,,,1,1511,Germany
182045,182092,Directed,2640,,,1,1532,Switzerland
125303,125142,Directed,2668,,,1,1547,Italy
127245,125142,Directed,2667,,,1,1547,Italy
17240,127727,Directed,3037,,,1,1699,Germany
17240,127366,Directed,3030,,,1,1697,Germany
17240,170525,Directed,2999,,,1,1688,Germany
17240,127728,Directed,2937,,,1,1663,Germany
115139,17240,Directed,2932,,,1,1662,Germany
60984,17240,Directed,2931,,,1,1662,Germany
127020,127049,Directed,2705,,,1,1571,Germany
152905,152906,Directed,2654,,,1,1542,Italy
145122,145121,Directed,2998,,,1,1688,Sweden
127911,127923,Directed,2909,,,1,1657,Germany
119097,119224,Directed,2664,,,1,1546,UnitedKingdom
119097,119178,Directed,2647,,,1,1537,Belgium
119097,119164,Directed,2637,,,1,1532,Belgium
125892,119097,Directed,2632,,,1,1529,Belgium
125148,128305,Directed,2716,,,1,1580,Switzerland
152905,125148,Directed,2686,,,1,1559,Italy
152906,125148,Directed,2685,,,1,1559,Italy
127665,127728,Directed,2936,,,1,1663,Germany
131400,131236,Directed,2650,,,1,1537,France
131399,131236,Directed,2629,,,1,1527,Germany
143630,137705,Directed,2864,,,1,1643,Germany
123974,128938,Directed,2986,,,1,1684,Germany
182088,123974,Directed,2887,,,1,1650,Switzerland
182089,123974,Directed,2879,,,1,1646,Germany
124000,123977,Directed,2988,,,1,1684,Germany
128991,128931,Directed,2841,,,1,1634,Germany
106920,96164,Directed,4329,,,1,1881,Germany
129648,96164,Directed,4180,,,1,1876,Germany
119272,119293,Directed,2876,,,1,1646,Belgium
208259,127668,Directed,3243,,,1,1753,Germany
165817,165955,Directed,4753,,,1,1891,Russia
125379,125407,Directed,2744,,,1,1594,Netherlands
125379,127098,Directed,2739,,,1,1591,Germany
126875,125379,Directed,2695,,,1,1562,Denmark
127092,125379,Directed,2694,,,1,1562,Denmark
128012,128013,Directed,2589,,,1,1485,Germany
131584,128012,Directed,2583,,,1,1478,Italy
125181,125299,Directed,2791,,,1,1618,Netherlands
125181,125302,Directed,2763,,,1,1607,Netherlands
125181,125407,Directed,2743,,,1,1594,Netherlands
125181,126489,Directed,2720,,,1,1582,Germany
125886,139734,Directed,3232,,,1,1751,Germany
191279,125886,Directed,3089,,,1,1716,Germany
127923,127962,Directed,2928,,,1,1661,Germany
126957,127275,Directed,2692,,,1,1562,Germany
126957,127010,Directed,2691,,,1,1562,Germany
125160,125181,Directed,2709,,,1,1572,Germany
128938,128986,Directed,3057,,,1,1709,Germany
125416,125561,Directed,2904,,,1,1655,France
127734,127801,Directed,2838,,,1,1633,Germany
127848,127734,Directed,2830,,,1,1629,Germany
189659,127734,Directed,2826,,,1,1625,Germany
127252,127461,Directed,2714,,,1,1576,Germany
127252,127275,Directed,2693,,,1,1562,Germany
125159,125181,Directed,2710,,,1,1572,Germany
141571,125159,Directed,2669,,,1,1549,UnitedKingdom
127061,127459,Directed,2724,,,1,1583,Germany
127049,166478,Directed,2771,,,1,1611,Germany
127049,127098,Directed,2738,,,1,1591,Germany
127010,127167,Directed,2782,,,1,1614,Germany
127010,127168,Directed,2769,,,1,1610,Germany
127010,127791,Directed,2757,,,1,1603,Germany
127724,222792,Directed,2930,,,1,1661,Germany
127724,222791,Directed,2924,,,1,1660,Germany
127724,222798,Directed,2908,,,1,1655,Germany
127724,222785,Directed,2907,,,1,1655,Germany
127724,222795,Directed,2895,,,1,1652,Germany
127724,222793,Directed,2893,,,1,1651,Germany
127724,222789,Directed,2889,,,1,1650,Germany
127724,222784,Directed,2886,,,1,1649,Germany
127724,222794,Directed,2880,,,1,1646,Germany
127724,222788,Directed,2870,,,1,1644,Germany
127724,127956,Directed,2869,,,1,1644,Germany
127724,128239,Directed,2844,,,1,1635,Germany
127790,144220,Directed,2723,,,1,1582,Germany
127790,127898,Directed,2722,,,1,1582,Germany
184935,127790,Directed,2673,,,1,1550,Germany
144220,144221,Directed,2760,,,1,1604,Germany
143642,129009,Directed,2790,,,1,1617,Germany
125390,127165,Directed,2777,,,1,1613,Netherlands
60803,28068,Directed,3931,,,1,1866,Germany
126827,127061,Directed,2703,,,1,1570,Germany
126827,127790,Directed,2672,,,1,1550,Germany
126827,126875,Directed,2663,,,1,1545,Germany
126827,126957,Directed,2661,,,1,1544,Germany
127275,127459,Directed,2725,,,1,1583,Germany
127275,127461,Directed,2713,,,1,1576,Germany
125143,125698,Directed,2980,,,1,1681,Germany
125154,125143,Directed,2935,,,1,1663,Germany
102292,165817,Directed,3970,,,1,1867,Russia
125006,125023,Directed,2816,,,1,1622,Italy
125109,125006,Directed,2755,,,1,1603,Belgium
127424,127734,Directed,2817,,,1,1622,Germany
127424,127665,Directed,2814,,,1,1621,Germany
127942,127424,Directed,2741,,,1,1592,Germany
127898,127424,Directed,2740,,,1,1592,Germany
125794,125682,Directed,2620,,,1,1519,Belgium
131443,131517,Directed,2590,,,1,1486,France
145123,145122,Directed,2916,,,1,1660,Netherlands
128122,128105,Directed,2742,,,1,1592,Germany
200006,128105,Directed,2737,,,1,1591,Germany
128377,166479,Directed,3058,,,1,1709,Germany
214807,128377,Directed,3003,,,1,1689,Germany
125588,107622,Directed,3334,,,1,1774,Germany
125488,128377,Directed,3055,,,1,1708,Germany
125488,125846,Directed,3019,,,1,1694,Germany
127606,127724,Directed,2835,,,1,1630,Germany
127606,127665,Directed,2815,,,1,1621,Germany
127606,129009,Directed,2779,,,1,1613,Germany
127606,221102,Directed,2756,,,1,1603,Germany
139734,139735,Directed,3259,,,1,1760,Germany
60985,143011,Directed,2969,,,1,1672,
125561,60985,Directed,2975,,,1,1676,France
143859,60985,Directed,2958,,,1,1667,Germany
137705,60985,Directed,2947,,,1,1666,Germany
115139,115359,Directed,2950,,,1,1667,Netherlands
115095,134896,Directed,2914,,,1,1660,Netherlands
115095,115367,Directed,2881,,,1,1647,Netherlands
115095,115139,Directed,2857,,,1,1641,Netherlands
106920,73872,Directed,4986,,,1,1897,Germany
96164,73872,Directed,4985,,,1,1897,Germany
125154,125488,Directed,2956,,,1,1667,Germany
125154,182089,Directed,2855,,,1,1640,Germany
125154,128411,Directed,2854,,,1,1640,Germany
126111,125154,Directed,2825,,,1,1625,Germany
126875,127252,Directed,2698,,,1,1564,Germany
126875,127010,Directed,2690,,,1,1562,Germany
127864,127898,Directed,2721,,,1,1582,Germany
60782,60815,Directed,3348,,,1,1777,Germany
60782,60816,Directed,3282,,,1,1766,Germany
60782,60817,Directed,3256,,,1,1758,Germany
60782,127668,Directed,3238,,,1,1752,Germany
125971,60782,Directed,3161,,,1,1734,Germany
125886,60782,Directed,3134,,,1,1726,Germany
128240,128239,Directed,2845,,,1,1635,Germany
60984,127387,Directed,3002,,,1,1689,Germany
60984,90395,Directed,2974,,,1,1675,Germany
60984,103783,Directed,2972,,,1,1674,Germany
60984,108000,Directed,2955,,,1,1667,Germany
60984,60985,Directed,2948,,,1,1666,Germany
60984,127386,Directed,2913,,,1,1658,Germany
60984,181729,Directed,2906,,,1,1655,Germany
60984,63867,Directed,2901,,,1,1654,Germany
60984,64080,Directed,2896,,,1,1652,Germany
60984,181728,Directed,2891,,,1,1650,Germany
144221,60984,Directed,2890,,,1,1650,Germany
126724,126730,Directed,2618,,,1,1515,Germany
101860,124000,Directed,2967,,,1,1671,Netherlands
101860,113719,Directed,2963,,,1,1669,Netherlands
101860,125488,Directed,2957,,,1,1667,Germany
101860,115617,Directed,2953,,,1,1667,Netherlands
101860,115359,Directed,2951,,,1,1667,Netherlands
101860,112822,Directed,2949,,,1,1667,Netherlands
101860,115616,Directed,2942,,,1,1664,Netherlands
101860,115470,Directed,2940,,,1,1664,Netherlands
101860,125184,Directed,2925,,,1,1661,Netherlands
101860,134896,Directed,2915,,,1,1660,Netherlands
125125,101860,Directed,2840,,,1,1634,Netherlands
125023,101860,Directed,2839,,,1,1634,Netherlands
125698,127387,Directed,3021,,,1,1694,Germany
208259,194308,Directed,3212,,,1,1745,Germany
132725,113719,Directed,2964,,,1,1669,Netherlands
119293,113719,Directed,2962,,,1,1669,Netherlands
127165,145123,Directed,2833,,,1,1630,Netherlands
127946,127803,Directed,3010,,,1,1690,Germany
127945,127803,Directed,3009,,,1,1690,Germany
106921,126031,Directed,3411,,,1,1796,Germany
106921,107399,Directed,3392,,,1,1792,Germany
106921,107622,Directed,3306,,,1,1770,Germany
106922,106921,Directed,3305,,,1,1770,Germany
145118,145119,Directed,3165,,,1,1731,Sweden
145120,145118,Directed,3091,,,1,1717,Sweden
127278,126111,Directed,2746,,,1,1594,Germany
127848,126111,Directed,2745,,,1,1594,Germany
125846,125886,Directed,3108,,,1,1721,Germany
125048,182088,Directed,2783,,,1,1615,Switzerland
125148,125048,Directed,2702,,,1,1569,Switzerland
124000,125971,Directed,3048,,,1,1704,Germany
208258,124000,Directed,2954,,,1,1667,Netherlands
127803,127671,Directed,3111,,,1,1721,Germany
127098,127791,Directed,2758,,,1,1603,Germany
60984,17241,Directed,2912,,,1,1658,Germany
128411,128743,Directed,2849,,,1,1638,Germany
119254,119272,Directed,2747,,,1,1595,Germany
102284,102292,Directed,3693,,,1,1847,Germany
107498,102284,Directed,3561,,,1,1830,Germany
60803,56404,Directed,4053,,,1,1871,Germany
127956,127962,Directed,2929,,,1,1661,Germany
128097,127956,Directed,2863,,,1,1643,Germany
128931,128743,Directed,2848,,,1,1638,Germany
145121,145120,Directed,3063,,,1,1711,Sweden
127962,128046,Directed,2984,,,1,1683,Germany
35141,60803,Directed,3542,,,1,1826,Germany
106921,35141,Directed,3382,,,1,1787,Germany
125888,125938,Directed,2599,,,1,1497,France
125888,125939,Directed,2598,,,1,1496,France
125888,129893,Directed,2597,,,1,1494,France
76481,76482,Directed,3013,,,1,1691,Germany
76481,128938,Directed,2987,,,1,1684,Germany
123974,76481,Directed,2934,,,1,1663,Germany
131444,131700,Directed,2574,,,1,1471,Italy
131444,131539,Directed,2573,,,1,1462,Italy
131561,131444,Directed,2566,,,1,1444,Italy
96164,96160,Directed,5035,,,1,1898,Germany
127181,131235,Directed,2608,,,1,1511,France
131447,127181,Directed,2604,,,1,1499,Italy
131446,127181,Directed,2603,,,1,1499,Italy
131541,152901,Directed,2592,,,1,1486,Italy
131576,131541,Directed,2577,,,1,1472,Italy
131561,131541,Directed,2576,,,1,1472,Italy
126112,126177,Directed,2602,,,1,1499,Poland
126888,126112,Directed,2588,,,1,1483,Italy
131398,131235,Directed,2609,,,1,1511,France
131584,131576,Directed,2568,,,1,1452,Greece
126109,126112,Directed,2587,,,1,1483,Italy
131561,126109,Directed,2572,,,1,1457,Germany
131535,131589,Directed,2595,,,1,1492,Italy
131540,131535,Directed,2581,,,1,1477,Italy
131539,131535,Directed,2580,,,1,1477,Italy
125898,125938,Directed,2600,,,1,1497,France
140181,125898,Directed,2579,,,1,1474,
128012,125898,Directed,2578,,,1,1474,
131575,133754,Directed,2562,,,1,1425,Greece
134781,131575,Directed,2558,,,1,1380,
134780,131575,Directed,2557,,,1,1380,
134873,131584,Directed,2563,,,1,1433,Italy
126087,126109,Directed,2571,,,1,1457,Germany
126887,126087,Directed,2565,,,1,1440,Austria
7487,45119,Directed,5098,,,1,1899,Germany
7487,18346,Directed,4989,,,1,1897,Germany
7487,18339,Directed,4988,,,1,1897,Germany
7487,45099,Directed,4936,,,1,1896,Germany
7487,61670,Directed,4852,,,1,1894,Germany
7487,46828,Directed,4850,,,1,1894,Germany
7487,11369,Directed,4848,,,1,1894,Germany
7487,48505,Directed,4816,,,1,1893,Germany
7487,76360,Directed,4691,,,1,1890,Germany
7487,43955,Directed,4615,,,1,1888,Germany
7487,220648,Directed,4430,,,1,1884,Germany
7487,63551,Directed,4282,,,1,1880,Germany
7487,7674,Directed,4281,,,1,1880,Germany
7487,30691,Directed,4251,,,1,1879,Germany
18331,7487,Directed,3892,,,1,1864,Germany
46930,51344,Directed,4684,,,1,1890,Germany
46968,46930,Directed,3858,,,1,1862,Germany
46967,46930,Directed,3857,,,1,1862,Germany
34189,103140,Directed,4648,,,1,1889,Germany
34189,43955,Directed,4614,,,1,1888,Germany
34189,73810,Directed,4325,,,1,1881,Germany
34189,46166,Directed,4090,,,1,1873,Germany
806,5697,Directed,5011,,,1,1898,UnitedStates
806,5695,Directed,4919,,,1,1896,UnitedStates
7865,806,Directed,4466,,,1,1885,UnitedStates
18331,9714,Directed,4026,,,1,1870,Germany
11370,45119,Directed,5099,,,1,1899,Germany
11370,103126,Directed,4991,,,1,1897,Germany
11370,62589,Directed,4895,,,1,1895,Germany
11370,61670,Directed,4851,,,1,1894,Germany
11370,46828,Directed,4849,,,1,1894,Germany
11370,48505,Directed,4815,,,1,1893,Germany
11370,65942,Directed,4781,,,1,1892,Germany
11370,18340,Directed,4698,,,1,1890,Germany
11370,45110,Directed,4660,,,1,1889,Germany
11370,106952,Directed,4644,,,1,1889,Ukraine
11370,47610,Directed,4578,,,1,1887,Germany
11370,45116,Directed,4533,,,1,1886,Germany
11370,90722,Directed,4443,,,1,1884,Germany
11370,90721,Directed,4399,,,1,1883,Germany
11370,90720,Directed,4398,,,1,1883,Germany
11370,90719,Directed,4361,,,1,1882,Germany
11370,90718,Directed,4331,,,1,1881,Germany
11370,90717,Directed,4330,,,1,1881,Germany
11370,90716,Directed,4291,,,1,1880,Germany
11370,90715,Directed,4198,,,1,1877,Germany
11370,90714,Directed,4175,,,1,1876,Germany
11370,156271,Directed,4150,,,1,1875,Germany
11370,102196,Directed,4066,,,1,1872,Germany
11370,102197,Directed,4044,,,1,1871,Germany
18331,11370,Directed,3789,,,1,1858,Germany
11370,11369,Directed,4847,,,1,1894,Germany
18339,40984,Directed,4813,,,1,1893,Germany
200949,199762,Directed,5068,,,1,1899,UnitedStates
46968,46927,Directed,3907,,,1,1865,Germany
46967,46927,Directed,3906,,,1,1865,Germany
46968,9716,Directed,4363,,,1,1882,Germany
84506,84657,Directed,4948,,,1,1897,UnitedStates
7865,22376,Directed,4467,,,1,1885,UnitedStates
7865,132578,Directed,3870,,,1,1863,UnitedStates
7865,118720,Directed,3833,,,1,1861,UnitedStates
26995,7865,Directed,3707,,,1,1850,UnitedStates
211240,211241,Directed,5013,,,1,1898,UnitedStates
49176,149401,Directed,4974,,,1,1897,Germany
168532,168533,Directed,4723,,,1,1891,UnitedStates
168532,211240,Directed,4425,,,1,1884,UnitedStates
132578,141206,Directed,4963,,,1,1897,UnitedStates
132578,168533,Directed,4722,,,1,1891,UnitedStates
19953,84010,Directed,4252,,,1,1879,Germany
49057,84506,Directed,4701,,,1,1890,Germany
49057,72169,Directed,4662,,,1,1889,Germany
49057,51898,Directed,4534,,,1,1886,Germany
49057,52383,Directed,4452,,,1,1884,Germany
49057,67546,Directed,4283,,,1,1880,Germany
49057,177513,Directed,4139,,,1,1875,France
49057,125585,Directed,4013,,,1,1870,UnitedStates
49057,155359,Directed,3786,,,1,1858,France
19530,65942,Directed,4782,,,1,1892,Germany
34180,37745,Directed,4901,,,1,1895,Germany
34180,37743,Directed,4811,,,1,1893,Germany
34180,37742,Directed,4778,,,1,1892,Germany
34180,37707,Directed,4777,,,1,1892,Germany
34180,37740,Directed,4739,,,1,1891,Germany
34180,37739,Directed,4738,,,1,1891,Germany
34180,37738,Directed,4737,,,1,1891,Germany
34180,37737,Directed,4736,,,1,1891,Germany
34180,37736,Directed,4700,,,1,1890,Germany
34180,37720,Directed,4699,,,1,1890,Germany
34180,37734,Directed,4655,,,1,1889,Germany
34180,37732,Directed,4654,,,1,1889,Germany
34180,37664,Directed,4653,,,1,1889,Germany
34180,37731,Directed,4624,,,1,1888,Germany
34180,37730,Directed,4623,,,1,1888,Germany
34180,37729,Directed,4574,,,1,1887,Germany
34180,37728,Directed,4573,,,1,1887,Germany
34180,37727,Directed,4572,,,1,1887,Germany
34180,37726,Directed,4571,,,1,1887,Germany
34180,37725,Directed,4478,,,1,1885,Germany
34180,37724,Directed,4477,,,1,1885,Germany
34180,37723,Directed,4476,,,1,1885,Germany
34180,37735,Directed,4440,,,1,1884,Germany
34180,37666,Directed,4397,,,1,1883,Germany
34180,37621,Directed,4396,,,1,1883,Germany
19953,7674,Directed,4280,,,1,1880,Germany
11370,7862,Directed,5097,,,1,1899,Germany
209182,207624,Directed,4386,,,1,1883,UnitedStates
46966,102103,Directed,4686,,,1,1890,Germany
46966,69220,Directed,4685,,,1,1890,Germany
46966,134936,Directed,4312,,,1,1881,Germany
46968,46966,Directed,3980,,,1,1868,Germany
46967,46966,Directed,3979,,,1,1868,Germany
209182,211255,Directed,4953,,,1,1897,UnitedStates
209182,211239,Directed,4138,,,1,1875,UnitedStates
67546,129311,Directed,4812,,,1,1893,Germany
201563,67546,Directed,4284,,,1,1880,Germany
155359,155507,Directed,4426,,,1,1884,France
169914,17983,Directed,3669,,,1,1845,Germany
18331,17983,Directed,3668,,,1,1845,Germany
20750,52984,Directed,4990,,,1,1897,Germany
125585,125421,Directed,4680,,,1,1890,UnitedStates
177513,129287,Directed,4885,,,1,1895,France
200949,211241,Directed,5012,,,1,1898,UnitedStates
200949,207148,Directed,4955,,,1,1897,UnitedStates
209182,200949,Directed,4172,,,1,1876,UnitedStates
207150,200949,Directed,4171,,,1,1876,UnitedStates
18599,149401,Directed,4973,,,1,1897,Germany
18599,49091,Directed,4972,,,1,1897,Germany
18599,52991,Directed,4645,,,1,1889,Germany
18599,52328,Directed,4519,,,1,1886,Germany
18599,20750,Directed,4257,,,1,1879,Germany
18607,18599,Directed,3891,,,1,1864,Germany
18332,18338,Directed,4390,,,1,1883,Germany
18332,18608,Directed,4356,,,1,1882,Germany
18332,18333,Directed,4311,,,1,1881,Germany
18332,63810,Directed,4278,,,1,1880,Germany
48502,46875,Directed,4482,,,1,1885,Germany
51693,46993,Directed,4767,,,1,1892,Germany
17982,9717,Directed,4446,,,1,1884,Germany
4642,7862,Directed,5096,,,1,1899,Germany
4642,18339,Directed,4987,,,1,1897,Germany
4642,45105,Directed,4938,,,1,1896,Germany
4642,45099,Directed,4937,,,1,1896,Germany
4642,62589,Directed,4894,,,1,1895,Germany
4642,40984,Directed,4814,,,1,1893,Germany
18331,4642,Directed,4024,,,1,1870,Germany
7486,4642,Directed,4023,,,1,1870,Germany
18598,169755,Directed,4710,,,1,1890,Germany
18598,170208,Directed,4595,,,1,1887,Germany
47064,18598,Directed,3860,,,1,1862,Germany
17982,45104,Directed,4659,,,1,1889,Germany
17982,47610,Directed,4579,,,1,1887,Germany
17982,72581,Directed,4484,,,1,1885,Germany
17982,46875,Directed,4481,,,1,1885,Germany
17982,34268,Directed,4451,,,1,1884,Germany
17982,30705,Directed,4449,,,1,1884,Germany
17982,18337,Directed,4447,,,1,1884,Germany
17982,49524,Directed,3915,,,1,1865,Germany
62547,17982,Directed,3666,,,1,1845,Germany
51693,219998,Directed,4726,,,1,1891,Germany
9722,15217,Directed,5094,,,1,1899,Germany
49057,9722,Directed,4157,,,1,1875,Germany
18331,9720,Directed,3958,,,1,1867,Germany
18331,30705,Directed,4450,,,1,1884,Germany
18331,40981,Directed,4400,,,1,1883,Germany
18331,49176,Directed,4367,,,1,1882,Germany
18331,63743,Directed,4359,,,1,1882,Germany
18331,51691,Directed,4335,,,1,1881,Germany
18331,42452,Directed,4296,,,1,1880,Germany
18331,18344,Directed,4295,,,1,1880,Germany
18331,18334,Directed,4293,,,1,1880,Germany
18331,47611,Directed,4262,,,1,1879,Germany
18331,63739,Directed,4255,,,1,1879,Germany
18331,63738,Directed,4254,,,1,1879,Germany
18331,46876,Directed,4202,,,1,1877,Germany
18331,45113,Directed,4159,,,1,1875,Germany
18331,45100,Directed,4158,,,1,1875,Germany
18331,49039,Directed,4003,,,1,1869,Germany
18331,49397,Directed,3963,,,1,1867,Germany
18331,45118,Directed,3961,,,1,1867,Germany
18331,29561,Directed,3959,,,1,1867,Germany
18331,24101,Directed,3941,,,1,1866,Russia
18331,49524,Directed,3914,,,1,1865,Germany
18331,40980,Directed,3913,,,1,1865,Germany
18331,52330,Directed,3897,,,1,1864,Germany
18331,45107,Directed,3896,,,1,1864,Germany
18331,40979,Directed,3894,,,1,1864,Germany
18331,51693,Directed,3879,,,1,1863,Germany
18331,51692,Directed,3877,,,1,1863,Germany
18331,63740,Directed,3873,,,1,1863,Germany
18331,58045,Directed,3862,,,1,1862,Germany
18331,45115,Directed,3861,,,1,1862,Germany
18331,18598,Directed,3859,,,1,1862,Germany
18331,58046,Directed,3841,,,1,1861,Germany
18331,156724,Directed,3839,,,1,1861,Germany
18331,62590,Directed,3836,,,1,1861,Germany
18331,45108,Directed,3822,,,1,1860,Germany
18331,18336,Directed,3821,,,1,1860,Germany
18331,63742,Directed,3816,,,1,1860,Germany
18331,58056,Directed,3804,,,1,1859,Germany
18331,18332,Directed,3803,,,1,1859,Germany
18331,76438,Directed,3777,,,1,1857,Germany
18331,45101,Directed,3759,,,1,1856,Germany
18331,63741,Directed,3750,,,1,1855,Germany
18331,63736,Directed,3733,,,1,1853,Germany
18331,76359,Directed,3704,,,1,1849,Germany
25484,18331,Directed,3568,,,1,1831,Germany
7486,45120,Directed,4577,,,1,1887,Germany
7486,72581,Directed,4483,,,1,1885,Germany
7486,18337,Directed,4448,,,1,1884,Germany
7486,9717,Directed,4445,,,1,1884,Germany
7486,40981,Directed,4401,,,1,1883,Germany
7486,58044,Directed,4368,,,1,1882,Germany
7486,49176,Directed,4366,,,1,1882,Germany
7486,9718,Directed,4364,,,1,1882,Germany
7486,9716,Directed,4362,,,1,1882,Germany
7486,63743,Directed,4358,,,1,1882,Germany
7486,51691,Directed,4336,,,1,1881,Germany
7486,42452,Directed,4297,,,1,1880,Germany
7486,18344,Directed,4294,,,1,1880,Germany
7486,18334,Directed,4292,,,1,1880,Germany
7486,47611,Directed,4263,,,1,1879,Germany
7486,45121,Directed,4261,,,1,1879,Germany
7486,63739,Directed,4256,,,1,1879,Germany
7486,63738,Directed,4253,,,1,1879,Germany
7486,9719,Directed,4232,,,1,1878,Germany
7486,46876,Directed,4203,,,1,1877,Germany
7486,9713,Directed,4200,,,1,1877,Germany
7486,9722,Directed,4156,,,1,1875,Germany
7486,9723,Directed,4122,,,1,1874,Germany
7486,66188,Directed,4119,,,1,1874,Germany
7486,9711,Directed,4118,,,1,1874,Germany
7486,9715,Directed,4073,,,1,1872,Germany
7486,9712,Directed,4051,,,1,1871,Germany
7486,9721,Directed,4027,,,1,1870,Germany
7486,9714,Directed,4025,,,1,1870,Germany
7486,49039,Directed,4002,,,1,1869,Germany
7486,49397,Directed,3962,,,1,1867,Germany
7486,29561,Directed,3960,,,1,1867,Germany
7486,9720,Directed,3957,,,1,1867,Germany
7486,24101,Directed,3940,,,1,1866,Russia
7486,40980,Directed,3912,,,1,1865,Germany
7486,9724,Directed,3911,,,1,1865,Germany
7486,52330,Directed,3898,,,1,1864,Germany
7486,40979,Directed,3895,,,1,1864,Germany
7486,7487,Directed,3893,,,1,1864,Germany
7486,18336,Directed,3820,,,1,1860,Germany
7486,11370,Directed,3788,,,1,1858,Germany
29458,7486,Directed,3630,,,1,1841,Germany
18331,9723,Directed,4123,,,1,1874,Germany
47064,51693,Directed,3880,,,1,1863,Germany
47064,51692,Directed,3878,,,1,1863,Germany
47064,63740,Directed,3874,,,1,1863,Germany
47064,58045,Directed,3863,,,1,1862,Germany
47064,58046,Directed,3842,,,1,1861,Germany
47064,63742,Directed,3817,,,1,1860,Germany
47064,58056,Directed,3805,,,1,1859,Germany
47064,63741,Directed,3749,,,1,1855,Germany
49524,60552,Directed,4378,,,1,1883,Poland
18607,46166,Directed,4091,,,1,1873,Germany
18607,49178,Directed,3997,,,1,1869,Germany
18331,9713,Directed,4201,,,1,1877,Germany
18331,9715,Directed,4074,,,1,1872,Germany
34181,37628,Directed,5026,,,1,1898,Germany
34181,37627,Directed,4975,,,1,1897,Germany
34181,37640,Directed,4889,,,1,1895,Germany
34181,37625,Directed,4888,,,1,1895,Germany
34181,37641,Directed,4839,,,1,1894,Germany
34181,37620,Directed,4770,,,1,1892,Germany
34181,37619,Directed,4769,,,1,1892,Germany
34181,37618,Directed,4728,,,1,1891,Germany
34181,37617,Directed,4688,,,1,1890,Germany
34181,37616,Directed,4687,,,1,1890,Germany
34181,37615,Directed,4646,,,1,1889,Germany
34181,37614,Directed,4613,,,1,1888,Germany
34181,37613,Directed,4612,,,1,1888,Germany
34181,37612,Directed,4520,,,1,1886,Germany
34181,37800,Directed,4475,,,1,1885,Germany
34181,37652,Directed,4474,,,1,1885,Germany
34181,37634,Directed,4473,,,1,1885,Germany
34181,37626,Directed,4472,,,1,1885,Germany
34181,37663,Directed,4429,,,1,1884,Germany
34181,37662,Directed,4428,,,1,1884,Germany
34181,37661,Directed,4392,,,1,1883,Germany
34181,37660,Directed,4391,,,1,1883,Germany
34181,37659,Directed,4357,,,1,1882,Germany
34181,37665,Directed,4324,,,1,1881,Germany
34181,37658,Directed,4323,,,1,1881,Germany
34181,37657,Directed,4322,,,1,1881,Germany
34181,37656,Directed,4320,,,1,1881,Germany
34181,37655,Directed,4319,,,1,1881,Germany
34181,37653,Directed,4318,,,1,1881,Germany
34181,37651,Directed,4317,,,1,1881,Germany
34181,37650,Directed,4316,,,1,1881,Germany
34181,37649,Directed,4315,,,1,1881,Germany
34181,37648,Directed,4314,,,1,1881,Germany
34181,37639,Directed,4313,,,1,1881,Germany
34181,37647,Directed,4225,,,1,1878,Germany
34181,37646,Directed,4224,,,1,1878,Germany
34181,37645,Directed,4223,,,1,1878,Germany
34181,37644,Directed,4174,,,1,1876,Germany
34181,37643,Directed,4145,,,1,1875,Germany
34189,34181,Directed,3890,,,1,1864,Germany
7674,5698,Directed,5067,,,1,1899,UnitedStates
18331,9718,Directed,4365,,,1,1882,Germany
125585,144888,Directed,5066,,,1,1899,UnitedStates
125585,169153,Directed,5010,,,1,1898,UnitedStates
125585,141206,Directed,4964,,,1,1897,UnitedStates
125585,126485,Directed,4718,,,1,1891,UnitedStates
125585,134368,Directed,4465,,,1,1885,UnitedStates
125585,126484,Directed,4464,,,1,1885,UnitedStates
125585,141988,Directed,4273,,,1,1880,UnitedStates
18331,9719,Directed,4233,,,1,1878,Germany
24101,24108,Directed,4128,,,1,1874,Russia
55185,24101,Directed,3942,,,1,1866,Russia
67546,58343,Directed,4709,,,1,1890,Germany
27143,37656,Directed,4321,,,1,1881,Germany
45101,53268,Directed,4904,,,1,1895,Germany
45101,76356,Directed,4553,,,1,1886,Germany
29244,143417,Directed,4219,,,1,1878,UnitedStates
99605,29244,Directed,3993,,,1,1869,UnitedStates
49057,29244,Directed,3992,,,1,1869,UnitedStates
9721,52027,Directed,5085,,,1,1899,Germany
9721,52107,Directed,4978,,,1,1897,Germany
9721,52063,Directed,4930,,,1,1896,Germany
9721,52073,Directed,4843,,,1,1894,Germany
9721,52077,Directed,4775,,,1,1892,Germany
9721,52013,Directed,4774,,,1,1892,Germany
9721,52084,Directed,4733,,,1,1891,Germany
9721,52090,Directed,4694,,,1,1890,Germany
9721,52015,Directed,4692,,,1,1890,Germany
9721,52067,Directed,4649,,,1,1889,Germany
9721,52052,Directed,4621,,,1,1888,Germany
18331,9721,Directed,4028,,,1,1870,Germany
121004,122226,Directed,3292,,,1,1768,UnitedKingdom
121004,122199,Directed,3279,,,1,1766,Netherlands
121004,122200,Directed,3244,,,1,1754,UnitedKingdom
133391,133447,Directed,4421,,,1,1884,Netherlands
134672,134648,Directed,3395,,,1,1794,Netherlands
134648,134060,Directed,3492,,,1,1820,Netherlands
133834,134037,Directed,4461,,,1,1885,Netherlands
134060,133834,Directed,3623,,,1,1840,Netherlands
113119,122493,Directed,3263,,,1,1761,Netherlands
113119,113210,Directed,3196,,,1,1740,Netherlands
132212,132431,Directed,3220,,,1,1748,Netherlands
132273,132212,Directed,3104,,,1,1720,Netherlands
110897,110898,Directed,3223,,,1,1749,Netherlands
110898,122265,Directed,3360,,,1,1781,Netherlands
110898,123868,Directed,3267,,,1,1763,Netherlands
110898,110900,Directed,3266,,,1,1762,Netherlands
115471,115155,Directed,2946,,,1,1666,Netherlands
122556,133586,Directed,4562,,,1,1887,Netherlands
122556,133507,Directed,4383,,,1,1883,Netherlands
122556,133587,Directed,4305,,,1,1881,Netherlands
114927,117499,Directed,2867,,,1,1644,Netherlands
114927,115323,Directed,2866,,,1,1644,Netherlands
114927,114945,Directed,2865,,,1,1644,Netherlands
144265,114927,Directed,2852,,,1,1640,Netherlands
122398,122494,Directed,3434,,,1,1801,Netherlands
133586,133642,Directed,4969,,,1,1897,Switzerland
118684,118796,Directed,3177,,,1,1735,Netherlands
133447,133310,Directed,4933,,,1,1896,Germany
112874,112893,Directed,3017,,,1,1694,Netherlands
158328,112874,Directed,2905,,,1,1655,France
113186,134672,Directed,3357,,,1,1780,Netherlands
113186,123756,Directed,3320,,,1,1773,Netherlands
115093,113186,Directed,3214,,,1,1746,Netherlands
123683,123770,Directed,3529,,,1,1825,Netherlands
134898,123683,Directed,3393,,,1,1793,Netherlands
122494,122531,Directed,3538,,,1,1826,Netherlands
122531,122556,Directed,4037,,,1,1871,Netherlands
122531,145037,Directed,3771,,,1,1857,Netherlands
122531,133391,Directed,3738,,,1,1854,Netherlands
122531,133598,Directed,3722,,,1,1853,Netherlands
101857,123866,Directed,3225,,,1,1749,Germany
101859,101857,Directed,3146,,,1,1727,Netherlands
101848,158328,Directed,2774,,,1,1612,France
59545,113494,Directed,3246,,,1,1754,Netherlands
59545,113493,Directed,3245,,,1,1754,Netherlands
59545,113495,Directed,3154,,,1,1728,Germany
59545,59615,Directed,3141,,,1,1726,Germany
112692,59545,Directed,3119,,,1,1723,Netherlands
54440,103742,Directed,3056,,,1,1709,Switzerland
54440,96720,Directed,3025,,,1,1696,Switzerland
143011,54440,Directed,2985,,,1,1684,Switzerland
143084,54440,Directed,2976,,,1,1676,Switzerland
53410,110897,Directed,3178,,,1,1735,Switzerland
53410,108998,Directed,3107,,,1,1721,Switzerland
53410,113403,Directed,3049,,,1,1705,Netherlands
129628,53410,Directed,3008,,,1,1690,Switzerland
54440,53410,Directed,3007,,,1,1690,Switzerland
182090,130248,Directed,2727,,,1,1584,Switzerland
122200,122397,Directed,3381,,,1,1787,UnitedKingdom
122200,122226,Directed,3291,,,1,1768,UnitedKingdom
112692,112767,Directed,3190,,,1,1739,Netherlands
112692,112766,Directed,3189,,,1,1739,Netherlands
112692,115775,Directed,3153,,,1,1728,Netherlands
112692,112764,Directed,3106,,,1,1721,Netherlands
112692,112765,Directed,3088,,,1,1716,Netherlands
112692,112763,Directed,3074,,,1,1714,Netherlands
112692,112762,Directed,3059,,,1,1710,Netherlands
128369,112692,Directed,3006,,,1,1690,Netherlands
38586,112812,Directed,3285,,,1,1766,Germany
53410,38586,Directed,3137,,,1,1726,Switzerland
133814,133788,Directed,4384,,,1,1883,Netherlands
113191,113278,Directed,3458,,,1,1810,Netherlands
113191,113279,Directed,3455,,,1,1809,Netherlands
122226,122418,Directed,3391,,,1,1792,UnitedStates
132468,144354,Directed,2862,,,1,1643,Netherlands
132468,144265,Directed,2847,,,1,1636,Netherlands
132488,132468,Directed,2770,,,1,1611,Netherlands
114945,117503,Directed,2968,,,1,1671,Netherlands
114945,117505,Directed,2927,,,1,1661,Netherlands
114945,117507,Directed,2920,,,1,1660,Netherlands
114945,117504,Directed,2919,,,1,1660,Netherlands
114945,117502,Directed,2918,,,1,1660,Netherlands
114945,117506,Directed,2911,,,1,1658,Netherlands
128369,128368,Directed,2992,,,1,1685,Germany
129708,129628,Directed,2922,,,1,1660,Switzerland
124667,108128,Directed,4560,,,1,1887,Netherlands
158329,182090,Directed,2682,,,1,1557,France
112748,112788,Directed,3075,,,1,1714,France
124086,124667,Directed,4113,,,1,1874,Netherlands
122437,134672,Directed,3356,,,1,1780,Netherlands
122437,122493,Directed,3254,,,1,1758,Netherlands
133814,152444,Directed,5006,,,1,1898,Netherlands
133814,152451,Directed,4872,,,1,1895,Netherlands
133814,152449,Directed,4679,,,1,1890,Netherlands
133814,134029,Directed,4385,,,1,1883,Netherlands
133834,133814,Directed,3952,,,1,1867,Netherlands
112764,112845,Directed,3228,,,1,1750,Netherlands
112764,115763,Directed,3205,,,1,1743,Netherlands
112764,112842,Directed,3204,,,1,1743,Netherlands
112764,112840,Directed,3203,,,1,1743,Netherlands
112764,112846,Directed,3199,,,1,1742,Netherlands
112764,112843,Directed,3188,,,1,1738,Netherlands
112764,112844,Directed,3183,,,1,1736,Netherlands
112764,112841,Directed,3164,,,1,1731,Netherlands
144356,112764,Directed,3147,,,1,1727,Netherlands
123770,133597,Directed,3725,,,1,1853,Netherlands
123770,124086,Directed,3724,,,1,1853,Netherlands
123770,133595,Directed,3643,,,1,1843,Netherlands
123770,133594,Directed,3641,,,1,1843,Netherlands
122199,122265,Directed,3361,,,1,1781,Netherlands
122437,122199,Directed,3278,,,1,1766,Netherlands
112701,112748,Directed,3012,,,1,1691,France
132468,132422,Directed,2966,,,1,1669,Netherlands
144436,132422,Directed,2965,,,1,1669,Netherlands
112841,115370,Directed,3249,,,1,1756,Netherlands
144156,112841,Directed,3172,,,1,1734,Netherlands
113031,123683,Directed,3388,,,1,1790,Netherlands
124667,133550,Directed,4796,,,1,1893,Netherlands
124667,133396,Directed,4794,,,1,1893,Netherlands
124667,133545,Directed,4716,,,1,1891,Netherlands
144354,144355,Directed,2926,,,1,1661,Netherlands
144354,144436,Directed,2873,,,1,1645,Netherlands
112823,134898,Directed,3269,,,1,1763,Netherlands
112823,122437,Directed,3242,,,1,1753,Netherlands
133596,133595,Directed,3642,,,1,1843,Netherlands
112812,113033,Directed,3416,,,1,1799,Netherlands
112812,113191,Directed,3412,,,1,1797,Netherlands
112812,113031,Directed,3368,,,1,1783,Netherlands
112812,113028,Directed,3367,,,1,1783,Netherlands
112812,113035,Directed,3366,,,1,1782,Netherlands
112812,113032,Directed,3362,,,1,1781,Netherlands
112812,113036,Directed,3345,,,1,1777,Netherlands
112812,113034,Directed,3326,,,1,1774,Netherlands
112812,113030,Directed,3316,,,1,1772,Netherlands
112812,113029,Directed,3315,,,1,1772,Netherlands
112788,112812,Directed,3286,,,1,1766,Germany
112788,112889,Directed,3236,,,1,1752,France
136726,152903,Directed,2594,,,1,1487,Italy
45621,111312,Directed,4871,,,1,1895,Netherlands
45621,133550,Directed,4795,,,1,1893,Netherlands
145708,145770,Directed,3035,,,1,1699,Germany
146374,145708,Directed,2874,,,1,1645,Germany
105756,108132,Directed,4945,,,1,1897,Netherlands
105756,108131,Directed,4944,,,1,1897,Netherlands
105756,108130,Directed,4943,,,1,1897,Netherlands
105756,108129,Directed,4561,,,1,1887,Netherlands
105756,108128,Directed,4559,,,1,1887,Netherlands
105756,108127,Directed,4382,,,1,1883,Netherlands
105756,108126,Directed,4381,,,1,1883,Netherlands
105756,108125,Directed,4351,,,1,1882,Netherlands
105756,108124,Directed,4304,,,1,1881,Netherlands
144155,144156,Directed,3076,,,1,1714,Germany
132273,145184,Directed,3094,,,1,1718,Netherlands
132422,132273,Directed,2978,,,1,1677,Netherlands
112799,112893,Directed,3018,,,1,1694,Netherlands
115463,112799,Directed,2939,,,1,1664,Netherlands
112689,112748,Directed,3011,,,1,1691,France
143011,112689,Directed,2995,,,1,1687,France
133447,133530,Directed,5059,,,1,1899,Netherlands
133447,133531,Directed,5001,,,1,1898,Netherlands
133447,133920,Directed,4915,,,1,1896,Netherlands
115471,144436,Directed,2853,,,1,1640,Netherlands
115471,115616,Directed,2850,,,1,1639,Netherlands
122493,124485,Directed,3456,,,1,1809,Netherlands
122265,124029,Directed,3493,,,1,1820,Netherlands
122265,122398,Directed,3403,,,1,1796,Netherlands
112893,113119,Directed,3096,,,1,1719,Netherlands
125125,129628,Directed,2921,,,1,1660,Switzerland
125125,129708,Directed,2884,,,1,1649,Switzerland
130248,125125,Directed,2778,,,1,1613,Switzerland
101861,113021,Directed,3041,,,1,1702,France
164673,101861,Directed,3032,,,1,1698,France
144355,144356,Directed,3082,,,1,1715,Netherlands
115093,124486,Directed,3226,,,1,1750,Netherlands
118796,135260,Directed,3293,,,1,1768,Sweden
118796,135259,Directed,3289,,,1,1767,Sweden
118796,135290,Directed,3218,,,1,1747,Sweden
112693,122515,Directed,3229,,,1,1751,Netherlands
112693,113186,Directed,3215,,,1,1746,Netherlands
112693,112783,Directed,3182,,,1,1736,Netherlands
112693,112782,Directed,3171,,,1,1734,Netherlands
112693,115775,Directed,3152,,,1,1728,Netherlands
112693,114925,Directed,3129,,,1,1725,Netherlands
112693,113281,Directed,3122,,,1,1724,Netherlands
112693,113280,Directed,3110,,,1,1721,Germany
112693,112928,Directed,3109,,,1,1721,Germany
115155,112693,Directed,3080,,,1,1715,Netherlands
123760,137227,Directed,3144,,,1,1727,
112786,112853,Directed,3258,,,1,1759,Netherlands
132212,112786,Directed,3158,,,1,1729,Italy
101856,115326,Directed,3185,,,1,1737,Netherlands
101856,115325,Directed,3184,,,1,1737,Netherlands
101856,122438,Directed,3181,,,1,1736,Netherlands
101856,115328,Directed,3160,,,1,1730,Netherlands
101856,115327,Directed,3159,,,1,1730,Netherlands
101856,124061,Directed,3157,,,1,1729,Netherlands
101856,124060,Directed,3151,,,1,1728,Netherlands
101856,115093,Directed,3150,,,1,1728,Netherlands
101856,101857,Directed,3145,,,1,1727,Netherlands
101856,123757,Directed,3136,,,1,1726,Netherlands
101856,124064,Directed,3128,,,1,1725,Netherlands
101856,112823,Directed,3127,,,1,1725,Netherlands
101856,121344,Directed,3118,,,1,1723,Netherlands
101856,123427,Directed,3113,,,1,1722,Netherlands
101856,115094,Directed,3112,,,1,1722,Netherlands
101856,123758,Directed,3102,,,1,1720,Netherlands
101856,123428,Directed,3101,,,1,1720,Netherlands
101856,123760,Directed,3099,,,1,1719,Netherlands
101856,123429,Directed,3098,,,1,1719,Netherlands
101856,115324,Directed,3097,,,1,1719,Netherlands
101856,122557,Directed,3093,,,1,1718,Netherlands
101856,124062,Directed,3081,,,1,1715,Netherlands
101856,112693,Directed,3079,,,1,1715,Netherlands
101856,118684,Directed,3068,,,1,1712,Netherlands
101856,124063,Directed,3062,,,1,1711,Netherlands
101858,101856,Directed,3016,,,1,1693,Netherlands
115155,101856,Directed,3004,,,1,1690,Netherlands
112568,113210,Directed,3195,,,1,1740,Netherlands
112568,119558,Directed,3170,,,1,1734,Netherlands
112568,112761,Directed,3135,,,1,1726,Netherlands
112568,112760,Directed,3126,,,1,1725,Netherlands
112568,123867,Directed,3103,,,1,1720,Netherlands
101861,101859,Directed,3060,,,1,1710,Switzerland
122515,124149,Directed,3336,,,1,1775,Netherlands
122515,123869,Directed,3317,,,1,1772,Netherlands
122515,123870,Directed,3307,,,1,1771,Netherlands
122515,123871,Directed,3298,,,1,1769,Netherlands
122515,123872,Directed,3264,,,1,1761,Netherlands
122515,123873,Directed,3250,,,1,1756,Netherlands
101858,115360,Directed,3031,,,1,1698,Netherlands
101858,124101,Directed,3024,,,1,1696,Netherlands
101858,112694,Directed,3023,,,1,1696,Netherlands
101858,112692,Directed,3005,,,1,1690,Netherlands
101858,112497,Directed,3001,,,1,1689,Netherlands
101858,115361,Directed,2977,,,1,1677,Netherlands
101860,101858,Directed,2941,,,1,1664,Netherlands
114945,101858,Directed,2917,,,1,1660,Netherlands
113210,134898,Directed,3268,,,1,1763,Netherlands
115463,115617,Directed,2952,,,1,1667,Netherlands
131383,115463,Directed,2868,,,1,1644,Italy
123429,123552,Directed,3262,,,1,1761,UnitedKingdom
115094,121004,Directed,3180,,,1,1736,UnitedKingdom
130913,130840,Directed,2781,,,1,1614,Netherlands
131821,144263,Directed,2735,,,1,1590,Switzerland
131905,131821,Directed,2641,,,1,1534,France
124485,113248,Directed,3591,,,1,1835,Netherlands
112876,112889,Directed,3237,,,1,1752,France
112889,113041,Directed,3371,,,1,1783,France
112889,171655,Directed,3295,,,1,1768,France
110900,110949,Directed,3476,,,1,1815,Netherlands
110900,113282,Directed,3443,,,1,1803,Netherlands
110900,113191,Directed,3413,,,1,1797,Netherlands
110900,113943,Directed,3358,,,1,1780,Netherlands
144264,144265,Directed,2846,,,1,1636,Netherlands
125408,145708,Directed,2877,,,1,1646,Netherlands
125408,125450,Directed,2842,,,1,1635,Netherlands
114664,114688,Directed,4825,,,1,1894,Netherlands
114664,143738,Directed,4676,,,1,1890,Netherlands
114664,114685,Directed,4601,,,1,1888,Netherlands
17813,144786,Directed,4185,,,1,1877,Netherlands
17813,114664,Directed,4168,,,1,1876,Netherlands
17813,105756,Directed,4132,,,1,1875,Netherlands
17813,45621,Directed,4081,,,1,1873,Netherlands
17813,114286,Directed,3946,,,1,1867,Netherlands
17813,113563,Directed,3737,,,1,1854,Netherlands
74341,17813,Directed,3595,,,1,1836,Netherlands
143083,143084,Directed,2885,,,1,1649,Switzerland
145707,145708,Directed,2878,,,1,1646,Netherlands
113282,113520,Directed,3509,,,1,1823,Netherlands
115395,115471,Directed,2831,,,1,1630,Netherlands
131821,115395,Directed,2731,,,1,1585,Switzerland
152238,115395,Directed,2717,,,1,1582,Netherlands
144263,144264,Directed,2787,,,1,1617,Netherlands
144262,144263,Directed,2734,,,1,1589,Germany
110893,144900,Directed,3466,,,1,1812,Netherlands
110893,110949,Directed,3454,,,1,1809,Netherlands
110893,113282,Directed,3442,,,1,1803,Netherlands
110893,123681,Directed,3373,,,1,1784,Netherlands
110893,132507,Directed,3370,,,1,1783,Netherlands
110893,117538,Directed,3342,,,1,1776,Netherlands
110893,124121,Directed,3338,,,1,1775,Netherlands
110893,124120,Directed,3337,,,1,1775,Netherlands
110893,124119,Directed,3327,,,1,1774,Netherlands
110893,113861,Directed,3321,,,1,1773,Netherlands
110893,117615,Directed,3308,,,1,1771,Netherlands
110893,123949,Directed,3301,,,1,1770,Netherlands
110893,124122,Directed,3288,,,1,1767,Netherlands
112812,110893,Directed,3281,,,1,1766,Netherlands
112841,110893,Directed,3280,,,1,1766,Netherlands
144262,132488,Directed,2732,,,1,1585,Germany
125378,125408,Directed,2773,,,1,1612,Netherlands
131577,125378,Directed,2766,,,1,1608,Netherlands
152902,152903,Directed,2593,,,1,1487,Italy
110949,113245,Directed,3605,,,1,1837,Netherlands
110949,113250,Directed,3596,,,1,1836,Netherlands
110949,113248,Directed,3592,,,1,1835,Netherlands
110949,112203,Directed,3590,,,1,1835,Netherlands
110949,113249,Directed,3566,,,1,1831,Netherlands
110949,113252,Directed,3559,,,1,1830,Netherlands
110949,113251,Directed,3558,,,1,1830,Netherlands
110949,113247,Directed,3549,,,1,1828,Netherlands
110949,113246,Directed,3508,,,1,1823,Netherlands
113041,110949,Directed,3467,,,1,1812,France
74341,144901,Directed,3651,,,1,1844,Netherlands
74341,112203,Directed,3589,,,1,1835,Netherlands
74341,113566,Directed,3582,,,1,1834,Netherlands
74341,113585,Directed,3543,,,1,1827,Netherlands
114843,74341,Directed,3500,,,1,1822,Netherlands
110893,74341,Directed,3482,,,1,1816,Netherlands
113566,145138,Directed,4060,,,1,1872,Netherlands
113566,145063,Directed,3747,,,1,1855,Netherlands
113566,145304,Directed,3701,,,1,1849,Netherlands
113566,145303,Directed,3685,,,1,1847,Netherlands
130913,145707,Directed,2789,,,1,1617,Netherlands
130995,130913,Directed,2707,,,1,1572,UnitedKingdom
115008,115095,Directed,2836,,,1,1631,Netherlands
115008,115471,Directed,2832,,,1,1630,Netherlands
115008,144264,Directed,2786,,,1,1617,Netherlands
125408,125358,Directed,2785,,,1,1616,France
112203,112230,Directed,3866,,,1,1863,Netherlands
112203,112300,Directed,3848,,,1,1862,Netherlands
112203,116142,Directed,3770,,,1,1857,Netherlands
112203,112261,Directed,3715,,,1,1852,Netherlands
112203,113577,Directed,3702,,,1,1849,Netherlands
112203,114890,Directed,3687,,,1,1847,Netherlands
112203,113578,Directed,3656,,,1,1845,Netherlands
152237,152238,Directed,2683,,,1,1559,France
125232,125302,Directed,2762,,,1,1607,Netherlands
132508,132507,Directed,3369,,,1,1783,Netherlands
127144,127166,Directed,2569,,,1,1453,Italy
131606,131577,Directed,2696,,,1,1563,France
116142,116173,Directed,4012,,,1,1870,Netherlands
116142,116172,Directed,3951,,,1,1867,Netherlands
112230,116158,Directed,4133,,,1,1875,Netherlands
125302,125408,Directed,2772,,,1,1612,Netherlands
127166,127245,Directed,2621,,,1,1520,Italy
136726,127166,Directed,2570,,,1,1453,Italy
149192,127166,Directed,2567,,,1,1446,Italy
143082,143083,Directed,2834,,,1,1630,Switzerland
194305,177440,Directed,2894,,,1,1652,Germany
114843,131982,Directed,3565,,,1,1831,Netherlands
114843,131983,Directed,3548,,,1,1828,Netherlands
114843,131981,Directed,3521,,,1,1824,Netherlands
114843,131979,Directed,3490,,,1,1819,Netherlands
130323,114843,Directed,3477,,,1,1815,Netherlands
130840,130575,Directed,2827,,,1,1629,Netherlands
125434,125450,Directed,2843,,,1,1635,Netherlands
130575,130489,Directed,2897,,,1,1653,Netherlands
112261,112549,Directed,4947,,,1,1897,Netherlands
112261,112550,Directed,4422,,,1,1884,Netherlands
112261,112551,Directed,4270,,,1,1880,Netherlands
130346,130323,Directed,3310,,,1,1771,Netherlands
131939,130323,Directed,3309,,,1,1771,Netherlands
131982,138318,Directed,3650,,,1,1844,Netherlands
125897,125894,Directed,2606,,,1,1504,Belgium
130346,131939,Directed,3275,,,1,1765,Netherlands
130461,130346,Directed,3198,,,1,1742,Netherlands
131978,131939,Directed,3272,,,1,1764,Netherlands
130489,130461,Directed,3051,,,1,1706,Netherlands
138318,138726,Directed,3808,,,1,1860,Netherlands
152647,152648,Directed,2674,,,1,1551,Germany
132044,152238,Directed,2689,,,1,1561,Switzerland
132045,132044,Directed,2633,,,1,1529,France
138726,138775,Directed,4269,,,1,1880,Netherlands
132530,132508,Directed,3260,,,1,1760,Germany
125894,125892,Directed,2612,,,1,1513,Belgium
7731,74723,Directed,5005,,,1,1898,Netherlands
7731,74735,Directed,4829,,,1,1894,Netherlands
7731,45622,Directed,4828,,,1,1894,Netherlands
7731,144881,Directed,4797,,,1,1893,Netherlands
7731,74729,Directed,4604,,,1,1888,Netherlands
45621,7731,Directed,4218,,,1,1878,Netherlands
119164,119224,Directed,2665,,,1,1546,UnitedKingdom
143044,143045,Directed,2697,,,1,1564,Germany
152648,143044,Directed,2677,,,1,1553,Germany
119224,119246,Directed,2711,,,1,1573,
125299,125560,Directed,2872,,,1,1645,Netherlands
125299,125358,Directed,2784,,,1,1616,France
125450,125651,Directed,2910,,,1,1658,Netherlands
125450,132725,Directed,2903,,,1,1655,Netherlands
125450,125650,Directed,2900,,,1,1654,Netherlands
125450,125561,Directed,2882,,,1,1647,Netherlands
125450,125560,Directed,2871,,,1,1645,Netherlands
131606,152238,Directed,2675,,,1,1553,France
127946,144155,Directed,3045,,,1,1703,Germany
177440,127946,Directed,2979,,,1,1679,Germany
137705,127946,Directed,2971,,,1,1672,Germany
137717,127946,Directed,2970,,,1,1672,Germany
136936,63407,Directed,4773,,,1,1892,Germany
7404,62103,Directed,5091,,,1,1899,Germany
7404,62102,Directed,5089,,,1,1899,Germany
7404,62101,Directed,5087,,,1,1899,Germany
7404,57836,Directed,5034,,,1,1898,Germany
7404,62100,Directed,4980,,,1,1897,Germany
7404,62099,Directed,4899,,,1,1895,Germany
7404,31357,Directed,4741,,,1,1891,Germany
7404,29675,Directed,4486,,,1,1885,Germany
61849,62084,Directed,4439,,,1,1884,Germany
61849,62083,Directed,4437,,,1,1884,Germany
61849,62082,Directed,4394,,,1,1883,Germany
61849,62081,Directed,4288,,,1,1880,Germany
61849,62080,Directed,4285,,,1,1880,Germany
61849,62079,Directed,4228,,,1,1878,Germany
61849,62078,Directed,4096,,,1,1873,Germany
61849,61877,Directed,4093,,,1,1873,Germany
61849,62077,Directed,4069,,,1,1872,Germany
61849,61876,Directed,4067,,,1,1872,Germany
61850,5119,Directed,4845,,,1,1894,Germany
7404,5119,Directed,4844,,,1,1894,Germany
18235,165541,Directed,5050,,,1,1898,Germany
18235,77959,Directed,5046,,,1,1898,Germany
18235,62745,Directed,5044,,,1,1898,Germany
18235,38516,Directed,5040,,,1,1898,Germany
18235,46067,Directed,4854,,,1,1894,Germany
18235,81192,Directed,4837,,,1,1894,France
18235,216916,Directed,4818,,,1,1893,Germany
18235,182711,Directed,4804,,,1,1893,France
18235,60302,Directed,4746,,,1,1891,Germany
18235,19534,Directed,4702,,,1,1890,Germany
18235,46066,Directed,4663,,,1,1889,Germany
18235,62115,Directed,4633,,,1,1888,Germany
66102,18235,Directed,4057,,,1,1872,Norway
66101,18235,Directed,4056,,,1,1872,Norway
47064,19964,Directed,3731,,,1,1853,Germany
61850,62103,Directed,5092,,,1,1899,Germany
61850,62102,Directed,5090,,,1,1899,Germany
61850,62101,Directed,5088,,,1,1899,Germany
61850,62100,Directed,4981,,,1,1897,Germany
61850,62099,Directed,4898,,,1,1895,Germany
61850,84639,Directed,4810,,,1,1893,Germany
61850,62090,Directed,4651,,,1,1889,Germany
61850,62087,Directed,4569,,,1,1887,Germany
61850,62086,Directed,4568,,,1,1887,Germany
61850,62084,Directed,4438,,,1,1884,Germany
61850,62083,Directed,4436,,,1,1884,Germany
61850,62082,Directed,4395,,,1,1883,Germany
61850,62081,Directed,4287,,,1,1880,Germany
61850,62080,Directed,4286,,,1,1880,Germany
61850,62079,Directed,4229,,,1,1878,Germany
61850,62078,Directed,4095,,,1,1873,Germany
61850,61877,Directed,4094,,,1,1873,Germany
61850,62077,Directed,4070,,,1,1872,Germany
61850,61876,Directed,4068,,,1,1872,Germany
17864,17865,Directed,3424,,,1,1800,France
146036,17864,Directed,3247,,,1,1754,Italy
61850,57544,Directed,4809,,,1,1893,Germany
61850,51780,Directed,4527,,,1,1886,Germany
7298,7338,Directed,5084,,,1,1899,Germany
7298,7337,Directed,5083,,,1,1899,Germany
7298,7336,Directed,5082,,,1,1899,Germany
7298,7335,Directed,5081,,,1,1899,Germany
7298,37342,Directed,5064,,,1,1899,UnitedStates
7298,7301,Directed,5029,,,1,1898,Germany
7298,7300,Directed,5028,,,1,1898,Germany
7298,7299,Directed,5027,,,1,1898,Germany
7404,7298,Directed,4485,,,1,1885,Germany
32960,53473,Directed,4834,,,1,1894,France
32960,153109,Directed,4596,,,1,1888,
32960,125366,Directed,4513,,,1,1886,France
32960,129883,Directed,4469,,,1,1885,France
32960,103128,Directed,4275,,,1,1880,France
32960,101285,Directed,4274,,,1,1880,France
32960,34227,Directed,4248,,,1,1879,France
32960,199599,Directed,4189,,,1,1877,France
32960,34260,Directed,4115,,,1,1874,France
100550,32960,Directed,3627,,,1,1841,France
61850,57836,Directed,5033,,,1,1898,Germany
18232,57594,Directed,3801,,,1,1859,Germany
51906,52103,Directed,4526,,,1,1886,Germany
61848,52349,Directed,4979,,,1,1897,Germany
76358,76357,Directed,4965,,,1,1897,France
100550,100584,Directed,4558,,,1,1887,Belgium
100550,100579,Directed,4130,,,1,1875,Belgium
166282,190815,Directed,3742,,,1,1854,Germany
61850,53045,Directed,4567,,,1,1887,Germany
17946,76438,Directed,3776,,,1,1857,Germany
17946,59343,Directed,3754,,,1,1856,Germany
17946,63736,Directed,3732,,,1,1853,Germany
17946,19964,Directed,3730,,,1,1853,Germany
17946,17982,Directed,3667,,,1,1845,Germany
17946,156729,Directed,3618,,,1,1839,Germany
17946,156723,Directed,3606,,,1,1837,Germany
17981,17946,Directed,3546,,,1,1827,Germany
16915,49179,Directed,4859,,,1,1894,Germany
46967,16915,Directed,3875,,,1,1863,Germany
19496,52066,Directed,5032,,,1,1898,Germany
19496,52053,Directed,5031,,,1,1898,Germany
19496,52083,Directed,4932,,,1,1896,Germany
19496,52057,Directed,4929,,,1,1896,Germany
19496,52097,Directed,4734,,,1,1891,Germany
19496,52101,Directed,4696,,,1,1890,Germany
19496,52095,Directed,4695,,,1,1890,Germany
19496,52071,Directed,4693,,,1,1890,Germany
19496,52050,Directed,4620,,,1,1888,Germany
19496,52021,Directed,4619,,,1,1888,Germany
19496,52020,Directed,4618,,,1,1888,Germany
19496,52016,Directed,4617,,,1,1888,Germany
19496,52103,Directed,4525,,,1,1886,Germany
19496,52075,Directed,4431,,,1,1884,Germany
19496,52263,Directed,4393,,,1,1883,Germany
19526,19496,Directed,3917,,,1,1865,Germany
19534,46067,Directed,4855,,,1,1894,Germany
46060,66165,Directed,5102,,,1,1899,Germany
46060,46068,Directed,5043,,,1,1898,Germany
46060,129776,Directed,4749,,,1,1891,Germany
61850,47741,Directed,4327,,,1,1881,Germany
61849,47741,Directed,4326,,,1,1881,Germany
46067,46063,Directed,5100,,,1,1899,Germany
46967,18549,Directed,3876,,,1,1863,Germany
76440,76439,Directed,4610,,,1,1888,France
46061,38516,Directed,5041,,,1,1898,Germany
61850,19466,Directed,4434,,,1,1884,Germany
61849,19466,Directed,4433,,,1,1884,Germany
18235,7427,Directed,4584,,,1,1887,Germany
7402,137028,Directed,3700,,,1,1848,Germany
7402,190351,Directed,3677,,,1,1846,Germany
29642,7402,Directed,3514,,,1,1823,Germany
34266,105158,Directed,5076,,,1,1899,France
34266,53473,Directed,4835,,,1,1894,France
34266,122554,Directed,4764,,,1,1892,France
34266,76358,Directed,4564,,,1,1887,France
136936,209583,Directed,4732,,,1,1891,Germany
137028,136936,Directed,3802,,,1,1859,Germany
62547,62590,Directed,3837,,,1,1861,Germany
62547,65029,Directed,3760,,,1,1856,Germany
62547,63737,Directed,3691,,,1,1847,Germany
62547,156729,Directed,3617,,,1,1839,Germany
55185,100550,Directed,3626,,,1,1841,France
104652,55185,Directed,3598,,,1,1836,France
3122,52059,Directed,4524,,,1,1886,Germany
3122,52030,Directed,4523,,,1,1886,Germany
3122,52075,Directed,4432,,,1,1884,Germany
22723,52083,Directed,4931,,,1,1896,Germany
60302,60305,Directed,4862,,,1,1895,Poland
57706,66477,Directed,3934,,,1,1866,Germany
61850,52271,Directed,4650,,,1,1889,Germany
46067,46068,Directed,5042,,,1,1898,Germany
190814,49032,Directed,4334,,,1,1881,Germany
52362,49032,Directed,4333,,,1,1881,Germany
17865,55185,Directed,3597,,,1,1836,France
17865,17946,Directed,3545,,,1,1827,Germany
17865,26995,Directed,3474,,,1,1814,France
108295,17865,Directed,3425,,,1,1800,France
31047,129883,Directed,4468,,,1,1885,France
129885,31047,Directed,3811,,,1,1860,France
129884,31047,Directed,3810,,,1,1860,France
100579,100584,Directed,4557,,,1,1887,Belgium
63734,63737,Directed,3692,,,1,1847,Germany
129884,196373,Directed,4221,,,1,1878,France
19526,156728,Directed,4204,,,1,1877,Germany
19526,49062,Directed,3918,,,1,1865,Germany
19526,49177,Directed,3881,,,1,1863,Germany
57706,19526,Directed,3744,,,1,1854,Germany
34254,145784,Directed,5077,,,1,1899,France
34254,81192,Directed,4836,,,1,1894,France
34254,39071,Directed,4805,,,1,1893,France
34254,125366,Directed,4514,,,1,1886,France
34254,96283,Directed,4308,,,1,1881,France
34254,34266,Directed,4188,,,1,1877,France
49062,156728,Directed,4205,,,1,1877,Germany
46967,90705,Directed,3981,,,1,1868,Germany
46967,90704,Directed,3955,,,1,1867,Germany
46967,90703,Directed,3932,,,1,1866,Germany
46967,90702,Directed,3909,,,1,1865,Germany
46967,90701,Directed,3908,,,1,1865,Germany
46967,90700,Directed,3775,,,1,1857,Germany
49062,46874,Directed,4853,,,1,1894,Germany
199754,104854,Directed,4861,,,1,1894,Russia
49177,72841,Directed,4752,,,1,1891,Germany
217633,217634,Directed,4417,,,1,1883,Germany
18603,25484,Directed,3517,,,1,1823,Germany
18603,166282,Directed,3507,,,1,1822,Germany
84010,141824,Directed,4950,,,1,1897,UnitedStates
84010,84012,Directed,4949,,,1,1897,UnitedStates
199600,199599,Directed,4190,,,1,1877,France
26995,199754,Directed,4065,,,1,1872,Ukraine
26995,34254,Directed,3928,,,1,1866,France
34266,12546,Directed,4642,,,1,1889,France
34254,12546,Directed,4641,,,1,1889,France
100570,100572,Directed,4941,,,1,1897,Belgium
100570,100579,Directed,4129,,,1,1875,Belgium
34260,24555,Directed,4766,,,1,1892,France
34266,24555,Directed,4765,,,1,1892,France
52362,67319,Directed,4298,,,1,1880,Germany
52362,62576,Directed,4226,,,1,1878,Germany
52362,175051,Directed,4000,,,1,1869,Germany
52362,157804,Directed,3999,,,1,1869,Germany
52362,222358,Directed,3954,,,1,1867,Germany
166282,52362,Directed,3741,,,1,1854,Germany
34260,105159,Directed,5020,,,1,1898,France
34260,76439,Directed,4611,,,1,1888,France
61848,73594,Directed,4934,,,1,1896,Germany
61848,62094,Directed,4776,,,1,1892,Germany
61848,62095,Directed,4735,,,1,1891,Germany
61848,62093,Directed,4697,,,1,1890,Germany
61848,62092,Directed,4652,,,1,1889,Germany
61848,62088,Directed,4622,,,1,1888,Germany
65029,61848,Directed,4078,,,1,1872,Germany
46061,66165,Directed,5103,,,1,1899,Germany
46061,46063,Directed,5101,,,1,1899,Germany
46061,165541,Directed,5051,,,1,1898,Germany
46061,150803,Directed,5049,,,1,1898,Germany
46061,77959,Directed,5047,,,1,1898,Germany
46061,62745,Directed,5045,,,1,1898,Germany
46061,53413,Directed,4857,,,1,1894,Germany
46061,216916,Directed,4819,,,1,1893,Germany
46061,46991,Directed,4743,,,1,1891,Germany
46967,46061,Directed,3840,,,1,1861,Germany
61848,47817,Directed,4435,,,1,1884,Germany
123978,124661,Directed,3964,,,1,1867,Germany
123978,156726,Directed,3856,,,1,1862,Germany
123978,156724,Directed,3838,,,1,1861,Germany
123978,156721,Directed,3800,,,1,1859,Germany
123978,124283,Directed,3790,,,1,1858,Germany
123978,158606,Directed,3695,,,1,1847,Germany
123978,158570,Directed,3694,,,1,1847,Germany
123999,123978,Directed,3547,,,1,1827,Germany
141834,145124,Directed,3756,,,1,1856,Germany
141834,158817,Directed,3729,,,1,1853,Germany
141834,188453,Directed,3675,,,1,1846,Germany
145114,141834,Directed,3516,,,1,1823,Germany
145119,145116,Directed,3231,,,1,1751,Sweden
145118,145116,Directed,3230,,,1,1751,Sweden
124661,50937,Directed,4616,,,1,1888,Germany
124283,124194,Directed,4075,,,1,1872,Germany
76482,76483,Directed,3114,,,1,1722,Germany
158751,161415,Directed,4121,,,1,1874,Germany
158751,158752,Directed,3793,,,1,1858,Germany
161381,158751,Directed,3719,,,1,1852,Germany
61734,64803,Directed,5080,,,1,1899,CzechRepublic
126119,177465,Directed,3284,,,1,1766,Germany
126119,126124,Directed,3240,,,1,1752,Germany
126119,126895,Directed,3202,,,1,1742,Germany
127647,126119,Directed,3163,,,1,1730,Germany
124908,136536,Directed,3888,,,1,1864,Switzerland
126334,126356,Directed,3440,,,1,1802,Germany
106530,104394,Directed,3401,,,1,1795,Germany
76484,76485,Directed,3296,,,1,1768,Germany
76484,126026,Directed,3270,,,1,1763,Germany
123973,51899,Directed,4661,,,1,1889,Germany
57670,66476,Directed,3194,,,1,1739,Germany
57670,103387,Directed,3168,,,1,1733,Germany
57670,60213,Directed,3143,,,1,1726,Germany
128986,57670,Directed,3073,,,1,1713,Germany
72669,57670,Directed,3072,,,1,1713,Germany
139735,139687,Directed,3277,,,1,1765,Germany
18336,90732,Directed,5095,,,1,1899,Germany
18336,90731,Directed,5037,,,1,1898,Germany
18336,66156,Directed,5036,,,1,1898,Germany
18336,52925,Directed,4935,,,1,1896,Germany
18336,61590,Directed,4902,,,1,1895,Germany
18336,49568,Directed,4740,,,1,1891,Germany
18336,90730,Directed,4657,,,1,1889,Germany
18336,73765,Directed,4625,,,1,1888,Germany
18336,90728,Directed,4576,,,1,1887,Germany
18336,90727,Directed,4532,,,1,1886,Germany
18336,90726,Directed,4531,,,1,1886,Germany
18336,90725,Directed,4530,,,1,1886,Germany
18336,90724,Directed,4480,,,1,1885,Germany
18336,90723,Directed,4479,,,1,1885,Germany
18336,53040,Directed,4442,,,1,1884,Germany
18336,64955,Directed,4419,,,1,1884,Austria
18336,82584,Directed,4302,,,1,1881,Austria
18336,64946,Directed,4301,,,1,1881,Austria
18336,90713,Directed,4154,,,1,1875,Germany
18336,90712,Directed,4153,,,1,1875,Germany
18336,90711,Directed,4120,,,1,1874,Germany
18336,66166,Directed,4100,,,1,1873,Germany
18336,52924,Directed,4099,,,1,1873,Germany
18336,90710,Directed,4072,,,1,1872,Germany
18336,52440,Directed,4071,,,1,1872,Germany
18336,90708,Directed,4050,,,1,1871,Germany
18336,90707,Directed,4049,,,1,1871,Germany
18336,190513,Directed,4021,,,1,1870,Germany
18336,90706,Directed,4019,,,1,1870,Germany
18336,76335,Directed,4018,,,1,1870,Germany
158570,142146,Directed,4858,,,1,1894,Germany
123972,217430,Directed,4789,,,1,1893,Austria
123972,181487,Directed,4240,,,1,1879,Austria
123972,217433,Directed,4182,,,1,1876,Germany
101403,101411,Directed,3498,,,1,1822,Austria
23194,200415,Directed,3645,,,1,1843,Germany
23194,49057,Directed,3636,,,1,1842,Germany
104394,23194,Directed,3506,,,1,1822,Germany
101865,23194,Directed,3505,,,1,1822,Germany
145116,145115,Directed,3255,,,1,1758,Sweden
46968,58044,Directed,4369,,,1,1882,Germany
46968,177513,Directed,4140,,,1,1875,France
46968,141863,Directed,4101,,,1,1873,Germany
46968,190513,Directed,4020,,,1,1870,Germany
126355,141834,Directed,3515,,,1,1823,Germany
126371,126355,Directed,3470,,,1,1812,Germany
103387,216548,Directed,3213,,,1,1745,Germany
103387,216273,Directed,3176,,,1,1734,Germany
125698,103387,Directed,3162,,,1,1730,Germany
136714,52900,Directed,3996,,,1,1869,Switzerland
123973,52900,Directed,3995,,,1,1869,Switzerland
123968,123957,Directed,3192,,,1,1739,Germany
123977,123968,Directed,3044,,,1,1703,Germany
158752,159745,Directed,4570,,,1,1887,Germany
158752,159714,Directed,4114,,,1,1874,France
158752,158985,Directed,3916,,,1,1865,Germany
139498,138971,Directed,3448,,,1,1805,Germany
66476,151180,Directed,3419,,,1,1799,Germany
66476,101403,Directed,3409,,,1,1796,Germany
66476,199402,Directed,3374,,,1,1784,Germany
66476,92586,Directed,3290,,,1,1767,Germany
60131,207023,Directed,3398,,,1,1794,Germany
66476,60131,Directed,3271,,,1,1763,Germany
123973,55342,Directed,4264,,,1,1879,Germany
27258,65026,Directed,4672,,,1,1890,Austria
27258,27259,Directed,4079,,,1,1873,Austria
96350,27258,Directed,3829,,,1,1861,Austria
96357,27258,Directed,3828,,,1,1861,Austria
25484,34183,Directed,3716,,,1,1852,Germany
65162,25484,Directed,3518,,,1,1823,Germany
123967,159715,Directed,4155,,,1,1875,Germany
123967,190513,Directed,4022,,,1,1870,Germany
123967,159015,Directed,4001,,,1,1869,Germany
123967,156933,Directed,3956,,,1,1867,Germany
123967,158752,Directed,3792,,,1,1858,Germany
123967,158982,Directed,3758,,,1,1856,Germany
123967,158817,Directed,3728,,,1,1853,Germany
123967,159312,Directed,3703,,,1,1849,Germany
123967,141931,Directed,3646,,,1,1843,Germany
123979,123967,Directed,3563,,,1,1830,Germany
47025,47064,Directed,3464,,,1,1811,Germany
47025,101893,Directed,3428,,,1,1800,Germany
47025,59684,Directed,3414,,,1,1797,Germany
66476,47025,Directed,3363,,,1,1781,Germany
145114,156934,Directed,3497,,,1,1821,Germany
123973,73822,Directed,4977,,,1,1897,Germany
145113,145114,Directed,3439,,,1,1802,Sweden
145115,145113,Directed,3343,,,1,1776,Sweden
20543,20542,Directed,3560,,,1,1830,Sweden
145284,145283,Directed,3397,,,1,1794,Italy
123973,187188,Directed,4754,,,1,1891,Russia
123973,217433,Directed,4181,,,1,1876,Germany
123973,124661,Directed,3965,,,1,1867,Germany
123978,123973,Directed,3899,,,1,1864,Germany
156720,156721,Directed,3799,,,1,1859,Germany
143865,782,Directed,4820,,,1,1893,Finland
129079,204419,Directed,3100,,,1,1719,Germany
129079,196791,Directed,3077,,,1,1714,Germany
129079,202054,Directed,3071,,,1,1712,Germany
199092,129079,Directed,3065,,,1,1711,Germany
198623,129079,Directed,3061,,,1,1711,Germany
167682,24894,Directed,3869,,,1,1863,Sweden
145286,145284,Directed,3302,,,1,1770,Italy
57667,165758,Directed,3554,,,1,1829,Germany
65161,57667,Directed,3408,,,1,1796,Germany
66476,57667,Directed,3407,,,1,1796,Germany
156934,188452,Directed,3654,,,1,1844,Germany
125143,125107,Directed,2981,,,1,1682,Germany
158570,169477,Directed,4667,,,1,1889,Germany
158570,169080,Directed,4592,,,1,1887,Germany
158570,200258,Directed,4231,,,1,1878,Germany
65161,65162,Directed,3431,,,1,1800,Germany
65161,151180,Directed,3420,,,1,1799,Germany
65161,199402,Directed,3375,,,1,1784,Germany
66476,65161,Directed,3276,,,1,1765,Germany
76485,123979,Directed,3432,,,1,1800,Germany
76485,126334,Directed,3380,,,1,1786,Germany
76485,76486,Directed,3372,,,1,1783,Germany
123957,76485,Directed,3297,,,1,1768,Germany
123967,73821,Directed,4529,,,1,1886,Germany
124283,73821,Directed,4528,,,1,1886,Germany
66476,65162,Directed,3430,,,1,1800,Germany
92586,106530,Directed,3313,,,1,1771,Germany
200007,187188,Directed,4755,,,1,1891,Russia
9711,126344,Directed,4502,,,1,1885,Finland
121242,121249,Directed,3138,,,1,1726,Germany
114105,83827,Directed,4906,,,1,1896,Austria
121249,101855,Directed,3221,,,1,1748,Germany
158043,158044,Directed,3782,,,1,1858,Austria
128986,129079,Directed,3070,,,1,1712,Germany
141931,141932,Directed,4031,,,1,1870,Germany
57659,101893,Directed,3429,,,1,1800,Germany
65161,57659,Directed,3325,,,1,1773,Germany
66476,57659,Directed,3324,,,1,1773,Germany
15176,13344,Directed,4713,,,1,1891,Austria
141831,13344,Directed,4712,,,1,1891,Austria
20543,167682,Directed,3615,,,1,1839,Sweden
20543,215699,Directed,3478,,,1,1815,Sweden
183360,20543,Directed,3404,,,1,1796,Sweden
21235,72669,Directed,2991,,,1,1685,Germany
21235,77909,Directed,2961,,,1,1668,Germany
137705,21235,Directed,2945,,,1,1665,Germany
123979,123999,Directed,3475,,,1,1814,Germany
123979,126355,Directed,3469,,,1,1812,Germany
158571,123979,Directed,3433,,,1,1800,Germany
139687,139498,Directed,3387,,,1,1789,Germany
126124,126894,Directed,3389,,,1,1790,Germany
126124,145776,Directed,3333,,,1,1774,Germany
126124,132508,Directed,3299,,,1,1769,Germany
114105,181113,Directed,4908,,,1,1896,Austria
114105,181491,Directed,4867,,,1,1895,Austria
114105,217430,Directed,4788,,,1,1893,Austria
123973,114105,Directed,4034,,,1,1871,Austria
123972,114105,Directed,4033,,,1,1871,Austria
141932,141936,Directed,5056,,,1,1899,UnitedKingdom
101850,101851,Directed,3377,,,1,1786,Austria
101853,101850,Directed,3314,,,1,1772,Austria
145119,183360,Directed,3235,,,1,1752,Sweden
124845,124490,Directed,3257,,,1,1758,Germany
141835,145124,Directed,3755,,,1,1856,Germany
141835,156007,Directed,3665,,,1,1845,Germany
141835,141836,Directed,3600,,,1,1836,Germany
145264,141835,Directed,3539,,,1,1826,Germany
19770,20654,Directed,4759,,,1,1892,Sweden
19770,126344,Directed,4503,,,1,1885,Finland
19770,143865,Directed,4375,,,1,1882,Finland
24894,19770,Directed,4064,,,1,1872,Sweden
145283,145264,Directed,3484,,,1,1816,Germany
158042,158043,Directed,3581,,,1,1834,Austria
124285,158042,Directed,3436,,,1,1801,Germany
124490,124285,Directed,3335,,,1,1774,Germany
166950,167093,Directed,3974,,,1,1868,UnitedKingdom
124486,126371,Directed,3384,,,1,1788,Austria
101852,101865,Directed,3445,,,1,1803,Germany
101855,101852,Directed,3283,,,1,1766,Germany
137132,138036,Directed,4705,,,1,1890,Germany
137314,137132,Directed,4238,,,1,1878,Estonia
125002,201934,Directed,3175,,,1,1734,Germany
125107,125002,Directed,3069,,,1,1712,Germany
45117,47795,Directed,4328,,,1,1881,Germany
45117,47794,Directed,4151,,,1,1875,Germany
47064,45117,Directed,3635,,,1,1842,Germany
101893,124908,Directed,3699,,,1,1848,Germany
127135,101893,Directed,3427,,,1,1800,Germany
168018,168023,Directed,3678,,,1,1846,Germany
168018,168022,Directed,3639,,,1,1842,Germany
168018,168019,Directed,3621,,,1,1839,Germany
170021,168018,Directed,3574,,,1,1831,Germany
170020,168018,Directed,3573,,,1,1831,Germany
170019,168018,Directed,3572,,,1,1831,Germany
177465,170021,Directed,3390,,,1,1790,Germany
41423,40985,Directed,3648,,,1,1843,Germany
168822,138036,Directed,4706,,,1,1890,Germany
76483,76484,Directed,3201,,,1,1742,Germany
19402,124567,Directed,4866,,,1,1895,Austria
19402,124566,Directed,3925,,,1,1866,Austria
113010,19402,Directed,3781,,,1,1858,Austria
51876,173680,Directed,3661,,,1,1845,Germany
51876,173679,Directed,3660,,,1,1845,Germany
101865,145264,Directed,3485,,,1,1816,Germany
101865,199385,Directed,3451,,,1,1808,Germany
181488,181487,Directed,4239,,,1,1879,Austria
15176,123739,Directed,4109,,,1,1874,Austria
60803,15176,Directed,3852,,,1,1862,Germany
28227,15176,Directed,3851,,,1,1862,Germany
188453,168822,Directed,3813,,,1,1860,Switzerland
188452,168822,Directed,3812,,,1,1860,Switzerland
125002,124845,Directed,3187,,,1,1737,Germany
125001,124845,Directed,3186,,,1,1737,Germany
101851,104900,Directed,3488,,,1,1818,Austria
101851,101865,Directed,3444,,,1,1803,Germany
166949,166950,Directed,3783,,,1,1858,UnitedKingdom
141836,137314,Directed,3664,,,1,1845,Germany
141835,137314,Directed,3663,,,1,1845,Germany
141834,137314,Directed,3662,,,1,1845,Germany
138500,137314,Directed,3653,,,1,1844,Germany
138500,181488,Directed,3827,,,1,1861,Austria
138500,158751,Directed,3718,,,1,1852,Germany
138500,166949,Directed,3708,,,1,1850,Germany
138500,169959,Directed,3578,,,1,1833,Germany
138971,138500,Directed,3510,,,1,1823,Germany
124286,66319,Directed,3438,,,1,1801,Germany
124285,66319,Directed,3437,,,1,1801,Germany
113011,113012,Directed,4907,,,1,1896,Austria
113011,138329,Directed,4249,,,1,1879,CzechRepublic
113011,193253,Directed,4195,,,1,1877,CzechRepublic
19402,13105,Directed,3924,,,1,1866,Austria
114765,25212,Directed,3850,,,1,1862,Italy
24210,16966,Directed,5021,,,1,1898,Italy
25212,24210,Directed,4427,,,1,1884,Italy
45011,62397,Directed,4566,,,1,1887,Germany
18230,51876,Directed,3496,,,1,1820,Germany
18230,35953,Directed,3480,,,1,1815,Germany
18230,18231,Directed,3423,,,1,1799,Germany
18230,151180,Directed,3418,,,1,1799,Germany
18230,140135,Directed,3410,,,1,1796,Germany
127710,18230,Directed,3379,,,1,1786,Germany
66476,18230,Directed,3378,,,1,1786,Germany
76486,101893,Directed,3426,,,1,1800,Germany
57667,29458,Directed,3511,,,1,1823,Germany
126120,126124,Directed,3239,,,1,1752,Germany
127636,126120,Directed,3209,,,1,1744,Germany
126895,126120,Directed,3208,,,1,1744,Germany
17807,64803,Directed,5079,,,1,1899,CzechRepublic
18336,17807,Directed,4267,,,1,1880,Austria
127671,127636,Directed,3149,,,1,1727,Germany
96330,141831,Directed,3670,,,1,1846,Austria
96330,96350,Directed,3502,,,1,1822,CzechRepublic
96357,193252,Directed,3831,,,1,1861,Austria
130991,65026,Directed,4673,,,1,1890,Austria
18336,18335,Directed,4656,,,1,1889,Germany
96350,193252,Directed,3830,,,1,1861,Austria
96350,114765,Directed,3767,,,1,1857,Austria
184828,180759,Directed,5022,,,1,1898,Italy
136716,184227,Directed,3900,,,1,1864,Germany
136717,136716,Directed,3550,,,1,1829,Austria
96327,96350,Directed,3501,,,1,1822,CzechRepublic
96327,96330,Directed,3447,,,1,1805,CzechRepublic
143091,96327,Directed,3344,,,1,1777,
145114,145006,Directed,3576,,,1,1833,Sweden
52924,101725,Directed,4671,,,1,1889,Germany
52924,101900,Directed,4552,,,1,1886,Germany
52924,67317,Directed,4551,,,1,1886,Germany
113010,193252,Directed,3832,,,1,1861,Austria
113010,113011,Directed,3807,,,1,1860,Austria
113010,123972,Directed,3787,,,1,1858,Germany
113010,114765,Directed,3765,,,1,1857,Austria
113010,184828,Directed,3751,,,1,1856,Austria
113010,136716,Directed,3551,,,1,1829,Austria
128056,113010,Directed,3486,,,1,1817,Austria
173802,114765,Directed,3766,,,1,1857,Austria
193253,129344,Directed,4968,,,1,1897,CzechRepublic
193252,129344,Directed,4967,,,1,1897,CzechRepublic
141831,193289,Directed,4035,,,1,1871,Austria
215690,215688,Directed,3991,,,1,1869,Sweden
143129,143091,Directed,3219,,,1,1748,
18600,45011,Directed,4124,,,1,1874,Germany
18600,34180,Directed,3933,,,1,1866,Germany
18600,91096,Directed,3843,,,1,1861,Germany
18600,51470,Directed,3823,,,1,1860,Germany
18600,124283,Directed,3791,,,1,1858,Germany
18600,18607,Directed,3743,,,1,1854,Germany
18600,46968,Directed,3696,,,1,1847,Germany
66319,18600,Directed,3534,,,1,1825,Germany
20367,19965,Directed,4758,,,1,1892,Sweden
101854,101853,Directed,3251,,,1,1757,Austria
20367,20368,Directed,4507,,,1,1886,Sweden
20542,20367,Directed,3868,,,1,1863,Sweden
143130,143129,Directed,3206,,,1,1743,CzechRepublic
144866,144867,Directed,3772,,,1,1857,UnitedStates
145006,144866,Directed,3658,,,1,1845,UnitedStates
215699,215690,Directed,3616,,,1,1839,Sweden
38405,65917,Directed,4459,,,1,1885,Netherlands
38405,144745,Directed,4169,,,1,1876,Netherlands
38405,144823,Directed,4083,,,1,1873,Netherlands
38405,144634,Directed,4082,,,1,1873,Netherlands
38405,144716,Directed,4038,,,1,1871,Netherlands
38405,144744,Directed,4009,,,1,1870,Netherlands
38405,49650,Directed,4008,,,1,1870,Netherlands
73985,38405,Directed,3686,,,1,1847,Netherlands
73985,144767,Directed,3901,,,1,1865,Netherlands
73985,144766,Directed,3885,,,1,1864,Netherlands
73985,112333,Directed,3849,,,1,1862,Netherlands
73985,144883,Directed,3784,,,1,1858,Netherlands
113567,73985,Directed,3528,,,1,1825,Netherlands
73324,144916,Directed,3604,,,1,1837,Netherlands
73324,73985,Directed,3527,,,1,1825,Netherlands
112333,144702,Directed,4217,,,1,1878,Netherlands
112333,112320,Directed,4216,,,1,1878,Netherlands
113567,113573,Directed,3520,,,1,1824,Netherlands
113567,142325,Directed,3487,,,1,1817,Netherlands
113567,142702,Directed,3465,,,1,1812,Netherlands
112106,65941,Directed,4062,,,1,1872,Netherlands
51358,113614,Directed,5003,,,1,1898,Netherlands
51358,113613,Directed,4913,,,1,1896,Netherlands
51358,113612,Directed,4912,,,1,1896,Netherlands
51358,112185,Directed,4910,,,1,1896,Netherlands
112106,51358,Directed,4061,,,1,1872,Netherlands
100601,113527,Directed,3948,,,1,1867,Netherlands
100601,112171,Directed,3947,,,1,1867,Netherlands
100601,113537,Directed,3926,,,1,1866,Netherlands
100601,113522,Directed,3902,,,1,1865,Netherlands
100601,113524,Directed,3867,,,1,1863,Netherlands
100601,113530,Directed,3809,,,1,1860,Netherlands
100601,112106,Directed,3785,,,1,1858,Netherlands
100601,113536,Directed,3748,,,1,1855,Netherlands
100601,113534,Directed,3740,,,1,1854,Netherlands
100601,113521,Directed,3739,,,1,1854,Netherlands
100601,113523,Directed,3723,,,1,1853,Netherlands
100601,113533,Directed,3689,,,1,1847,Netherlands
100601,113532,Directed,3688,,,1,1847,Netherlands
100601,113531,Directed,3671,,,1,1846,Netherlands
100601,111269,Directed,3652,,,1,1844,Netherlands
100601,113526,Directed,3631,,,1,1842,Netherlands
100601,113535,Directed,3614,,,1,1839,Netherlands
100601,113528,Directed,3613,,,1,1839,Netherlands
100601,113525,Directed,3612,,,1,1839,Netherlands
100601,113529,Directed,3583,,,1,1834,Netherlands
100601,113538,Directed,3575,,,1,1833,Netherlands
100601,100602,Directed,3564,,,1,1831,Belgium
110949,100601,Directed,3491,,,1,1819,Netherlands
112171,141469,Directed,4244,,,1,1879,Netherlands
112171,141468,Directed,4243,,,1,1879,Netherlands
112171,141466,Directed,4215,,,1,1878,Netherlands
112171,141464,Directed,4184,,,1,1877,Netherlands
111269,111259,Directed,4602,,,1,1888,Netherlands
99434,144141,Directed,5058,,,1,1899,Netherlands
99434,116112,Directed,5057,,,1,1899,Netherlands
99434,144140,Directed,5002,,,1,1898,Netherlands
99434,112303,Directed,4946,,,1,1897,Netherlands
99434,144139,Directed,4870,,,1,1895,Netherlands
99434,143731,Directed,4826,,,1,1894,Netherlands
99434,144812,Directed,4793,,,1,1893,Netherlands
99434,144138,Directed,4792,,,1,1893,Netherlands
99434,110929,Directed,4791,,,1,1893,Netherlands
99434,111292,Directed,4757,,,1,1892,Netherlands
99434,144137,Directed,4715,,,1,1891,Netherlands
99434,114457,Directed,4460,,,1,1885,Netherlands
112171,99434,Directed,4242,,,1,1879,Netherlands
111269,113872,Directed,4352,,,1,1882,Netherlands
111269,113865,Directed,4186,,,1,1877,Netherlands
111269,113871,Directed,4111,,,1,1874,Netherlands
111269,113866,Directed,4084,,,1,1873,Netherlands
111269,113868,Directed,4039,,,1,1871,Netherlands
111269,113864,Directed,3975,,,1,1868,Netherlands
111269,113870,Directed,3950,,,1,1867,Netherlands
111269,113867,Directed,3949,,,1,1867,Netherlands
111269,113869,Directed,3927,,,1,1866,Netherlands
113881,113964,Directed,5004,,,1,1898,Netherlands
113881,113962,Directed,4827,,,1,1894,Netherlands
112106,113890,Directed,4914,,,1,1896,Netherlands
112106,113891,Directed,4678,,,1,1890,Netherlands
112106,113888,Directed,4677,,,1,1890,Netherlands
112106,113889,Directed,4603,,,1,1888,Netherlands
112106,113882,Directed,4245,,,1,1879,Netherlands
112106,113877,Directed,4187,,,1,1877,Netherlands
112106,113879,Directed,4170,,,1,1876,Netherlands
112106,113885,Directed,4136,,,1,1875,Netherlands
112106,112114,Directed,4135,,,1,1875,Netherlands
112106,113886,Directed,4112,,,1,1874,Netherlands
112106,113881,Directed,4085,,,1,1873,Netherlands
112106,113887,Directed,4063,,,1,1872,Netherlands
112106,113884,Directed,4040,,,1,1871,Netherlands
112106,113883,Directed,4011,,,1,1870,Netherlands
112106,113878,Directed,4010,,,1,1870,Netherlands
112106,113880,Directed,3990,,,1,1869,Netherlands
112261,112185,Directed,4911,,,1,1896,Netherlands
199357,127264,Directed,2556,,,1,1363,France
134931,134873,Directed,2561,,,1,1416,Italy
135185,134931,Directed,2560,,,1,1408,
209584,208347,Directed,4717,,,1,1891,UnitedStates
80886,122449,Directed,3780,,,1,1858,
80886,132487,Directed,3577,,,1,1833,UnitedStates
147797,80886,Directed,3552,,,1,1829,UnitedStates
208733,208729,Directed,4833,,,1,1894,UnitedStates
194422,208460,Directed,4332,,,1,1881,Germany
194422,207733,Directed,4260,,,1,1879,Germany
194422,209584,Directed,4230,,,1,1878,Germany
194422,209187,Directed,4177,,,1,1876,Germany
207784,208954,Directed,5069,,,1,1899,UnitedStates
207783,209536,Directed,5073,,,1,1899,UnitedStates
207783,209537,Directed,5016,,,1,1898,UnitedStates
207783,209535,Directed,5015,,,1,1898,UnitedStates
207783,208348,Directed,4958,,,1,1897,UnitedStates
207783,209534,Directed,4922,,,1,1896,UnitedStates
207783,211595,Directed,4884,,,1,1895,UnitedStates
209187,207783,Directed,4681,,,1,1890,UnitedStates
128131,127040,Directed,4780,,,1,1892,Germany
211459,209532,Directed,3556,,,1,1829,Germany
209187,215964,Directed,4721,,,1,1891,UnitedStates
209187,216675,Directed,4640,,,1,1889,UnitedStates
209187,210339,Directed,4510,,,1,1886,UnitedStates
209532,209187,Directed,4176,,,1,1876,Germany
128930,128131,Directed,4152,,,1,1875,Germany
122449,122450,Directed,4761,,,1,1892,UnitedStates
209187,207842,Directed,4831,,,1,1894,UnitedStates
128930,211077,Directed,5093,,,1,1899,Germany
128930,211076,Directed,4984,,,1,1897,Germany
128930,208690,Directed,4846,,,1,1894,Germany
128930,209675,Directed,4779,,,1,1892,Germany
128930,208692,Directed,4441,,,1,1884,Germany
128930,208733,Directed,4259,,,1,1879,Germany
128930,209485,Directed,4197,,,1,1877,Germany
177156,128930,Directed,3889,,,1,1864,Germany
207785,214268,Directed,4961,,,1,1897,UnitedStates
207785,211180,Directed,4959,,,1,1897,UnitedStates
207785,211595,Directed,4883,,,1,1895,UnitedStates
67041,35094,Directed,4607,,,1,1888,UnitedStates
132487,67041,Directed,4087,,,1,1873,UnitedStates
207733,209535,Directed,5014,,,1,1898,UnitedStates
207733,214268,Directed,4960,,,1,1897,UnitedStates
207733,211595,Directed,4882,,,1,1895,UnitedStates
207733,209483,Directed,4802,,,1,1893,UnitedStates
207733,207785,Directed,4763,,,1,1892,UnitedStates
207733,211583,Directed,4720,,,1,1891,UnitedStates
207733,209614,Directed,4719,,,1,1891,UnitedStates
207733,209615,Directed,4683,,,1,1890,UnitedStates
207733,207784,Directed,4682,,,1,1890,UnitedStates
207733,210339,Directed,4511,,,1,1886,UnitedStates
207733,218258,Directed,4424,,,1,1884,UnitedStates
177156,194422,Directed,3676,,,1,1846,Germany
122448,122450,Directed,4762,,,1,1892,UnitedStates
194422,122448,Directed,4199,,,1,1877,Germany
201548,218259,Directed,4639,,,1,1889,UnitedStates
201548,208460,Directed,4463,,,1,1885,UnitedStates
201548,127845,Directed,4462,,,1,1885,UnitedStates